co2,numWaiting,distanceTraveled,numVehicles
10310.242878953673,0.033333333333333333,12.444533910344161,0.90000000000000002
43179.542371066418,0.23333333333333334,60.183454784244582,4.6333333333333337
64939.44697800935,0.76666666666666672,145.23778822678059,9.1666666666666661
78692.249643946954,0.76666666666666672,193.85560848462515,12.566666666666666
102654.99122194757,1.1666666666666667,234.49112278531058,15.433333333333334
86281.029518558658,0.6333333333333333,232.28688899605143,14.133333333333333
71306.427741247768,1.8333333333333333,191.00716471423777,13.633333333333333
80972.837282372959,1.5666666666666667,162.0069224767384,11.9
59017.76261481562,2.2666666666666666,171.69177078379053,12.166666666666666
40797.980790842455,3.5333333333333332,127.84753959629215,10.6
19622.022335416194,5.5999999999999996,48.793217038243831,9.1666666666666661
84955.406540909884,3.0666666666666669,97.540927788721703,11.033333333333333
88941.867442649353,0.66666666666666663,245.75688999150273,14.666666666666666
72036.918617313495,1.9333333333333333,211.82961282595858,13.466666666666667
89535.483030621224,1.4666666666666666,172.28233600786498,13.333333333333334
112669.90319530867,1.3999999999999999,251.25719922448982,16.233333333333334
84373.765332831841,0.69999999999999996,284.0855567373568,16.0
57578.171903332899,1.5,222.17034886191155,13.266666666666667
23931.561754768871,3.7000000000000002,73.269596008032167,8.3000000000000007
30366.549347700377,5.0666666666666664,52.293157544255529,8.4333333333333336
64740.03644685242,2.1333333333333333,97.490698038596321,9.0
70209.197937806472,0.29999999999999999,197.14445249401118,11.333333333333334
43739.537848321772,1.0666666666666667,148.6791024947531,9.1999999999999993
33745.048501120218,2.7999999999999998,72.809142323223568,7.7000000000000002
69344.454310506218,1.6666666666666667,115.92605361375324,9.6999999999999993
66902.214795844775,0.5,198.80523271625449,11.266666666666667
52951.324962551036,0.46666666666666667,148.3810227171528,8.7333333333333325
51017.522592472582,0.0,140.03496572515567,7.6333333333333337
55273.58725350858,0.23333333333333334,125.08069112249046,7.7999999999999998
30654.168561886083,1.0333333333333334,123.73622452615672,7.3666666666666663
35292.154390443327,1.6333333333333333,96.692954131240953,7.333333333333333
66922.11967173616,0.80000000000000004,146.61390360293169,9.4333333333333336
36320.336427454182,0.36666666666666664,134.76601114249294,7.833333333333333
65533.507334335089,0.76666666666666672,115.41053951447741,8.5333333333333332
56160.883809456005,0.033333333333333333,155.48829621938418,8.8333333333333339
74914.108161239332,0.8666666666666667,157.72398074249767,10.733333333333333
83898.233344932421,0.66666666666666663,208.24996065832374,12.333333333333334
88745.813439068326,0.43333333333333335,226.41130344856805,13.6
57901.781483596686,0.93333333333333335,189.93134955360907,11.4
63571.704459857974,0.53333333333333333,127.32610183268432,8.6333333333333329
52690.002496171735,0.16666666666666666,154.71658971990456,8.8000000000000007
74084.289990748104,0.5,156.29193223896974,10.233333333333333
35040.209892056373,1.7666666666666666,146.5848233255727,10.1
100995.79213902338,1.6666666666666667,160.01821280916204,12.166666666666666
66400.550415876482,0.033333333333333333,233.28535761537668,12.266666666666667
46957.232200433362,0.96666666666666667,126.68056945141015,8.5666666666666664
49872.281257462011,2.2333333333333334,118.41618083124779,9.4333333333333336
57964.164399444977,1.8,119.8118964980964,9.2333333333333325
52326.817829316125,1.5,130.36336306501073,10.033333333333333
72315.476343373943,1.3333333333333333,167.61641929471045,10.933333333333334
33349.894127368956,1.0333333333333334,130.1191909415318,8.1666666666666661
56687.670889572815,1.0,99.607780126268594,7.4666666666666668
47792.302715959704,0.033333333333333333,140.50470377459891,7.5333333333333332
60795.523903670699,0.13333333333333333,122.58298122472135,8.1333333333333329
62460.356286747723,2.0,149.15496949211732,10.6
78335.148365282541,1.1000000000000001,140.60223616205127,10.933333333333334
84283.102548398747,0.066666666666666666,224.43846291652781,12.533333333333333
39162.648977695608,0.5,155.8391111728921,8.6999999999999993
34135.374187633061,1.0,41.548946727922278,4.666666666666667
37550.023023785834,1.0666666666666667,91.236973917500279,6.166666666666667
60619.17942675091,0.83333333333333337,114.27970594552239,8.5999999999999996
114940.94094388328,0.83333333333333337,221.49197717204893,14.5
102636.60613627052,0.69999999999999996,285.0909163183216,17.033333333333335
76627.895795221833,3.4333333333333331,254.39669975508977,17.633333333333333
92097.671238559356,4.5333333333333332,244.13836771424604,18.100000000000001
116151.31538372468,2.4333333333333331,225.43198642399838,17.5
132915.25948057169,1.2,313.09384390642219,19.866666666666667
75169.402699186132,1.3999999999999999,257.57532564429789,15.966666666666667
73134.613402876013,2.2999999999999998,162.681052588748,12.4
56540.886816766149,2.1333333333333333,156.10089400224564,11.0
93230.733816456137,1.1333333333333333,151.31433727531058,11.533333333333333
76410.334121203327,1.2,224.33399794913572,13.733333333333333
85287.112833360021,1.6333333333333333,206.76505367040798,14.5
85907.212987602528,1.5666666666666667,219.62570230970599,14.1
77741.604356543641,1.1666666666666667,202.17594326944632,12.966666666666667
91460.942362987538,1.1000000000000001,235.23496510949784,14.066666666666666
59860.98283288224,1.1333333333333333,184.78586284726217,11.866666666666667
84439.257878427103,1.6333333333333333,158.06852654865756,12.833333333333334
72951.418479239466,0.33333333333333331,228.06253435732572,12.6
62266.458741525457,0.59999999999999998,162.9163482881988,10.466666666666667
56763.10199626808,1.1000000000000001,141.45685858080944,9.0666666666666664
77134.715365502576,1.0333333333333334,156.01587373813587,11.066666666666666
36054.759992585612,3.7333333333333334,137.52454381039388,11.533333333333333
108215.25605901255,3.0,139.84219642523266,14.5
138317.46044213753,0.8666666666666667,326.4324322015031,19.0
91552.95311348114,0.5,316.77477443664128,17.766666666666666
65740.347001269838,3.1666666666666665,210.83277533515127,15.133333333333333
76381.020430183111,2.6000000000000001,153.82798778760181,12.666666666666666
62274.585695459282,3.7666666666666666,172.25624857352128,13.566666666666666
98996.651703276977,1.7,186.31894829341459,13.466666666666667
94832.360929061877,0.73333333333333328,243.17503473574317,15.066666666666666
100021.10427782494,1.2666666666666666,248.29210634187686,15.966666666666667
59113.926468656624,4.0,175.44744855930776,15.300000000000001
118211.43611516345,3.5333333333333332,185.60627145185603,17.266666666666666
96150.597079645522,1.0666666666666667,298.27577472574382,17.5
79905.622575735993,1.7,196.18860561914315,13.800000000000001
95091.473477138119,1.2,185.44713855185836,12.733333333333333
79892.786620018305,1.1333333333333333,239.96305776463615,14.466666666666667
100565.89318450015,1.6000000000000001,203.96321562056954,14.800000000000001
123474.27543352424,1.0333333333333334,293.57761819855642,18.533333333333335
70418.801707183229,1.5666666666666667,268.79583984701577,16.366666666666667
52755.31916015091,5.0666666666666664,149.13039461748488,13.800000000000001
54125.138035232318,6.1333333333333337,135.20358099956687,13.766666666666667
99937.068332959287,2.6333333333333333,195.5585529153511,15.166666666666666
97650.846280414917,1.1333333333333333,253.76545050454709,15.866666666666667
91896.450493973374,1.2,208.91515472696807,13.966666666666667
65102.727056360338,0.83333333333333337,181.92097087714265,11.633333333333333
37041.570322934393,3.0333333333333332,117.06779212366334,10.066666666666666
61861.568644739549,2.2333333333333334,85.838820141319758,8.6333333333333329
75143.92788713651,1.5333333333333334,180.73153304942363,11.966666666666667
56864.476677404986,0.8666666666666667,152.46894326058958,10.133333333333333
63342.471720958521,2.0,122.77782836318009,10.566666666666666
63506.298229064392,1.2333333333333334,157.66650209315398,10.333333333333334
59446.237173982736,0.23333333333333334,162.09985149447186,9.2333333333333325
44909.009800146647,0.6333333333333333,122.70276758180292,7.7333333333333334
64302.124380803187,0.5,108.7525681908628,7.7666666666666666
54779.014644731149,0.10000000000000001,150.27944817827833,8.7333333333333325
72904.958490718811,1.8,149.78867918899502,11.333333333333334
105383.56407697726,1.2666666666666666,221.02956013720419,14.466666666666667
90944.536260507273,0.80000000000000004,231.16395819004438,15.466666666666667
101792.75454385875,1.9666666666666666,238.22317385090591,16.433333333333334
107256.21253786368,2.0666666666666669,252.24222908157506,16.733333333333334
69846.496639261226,3.2666666666666666,207.75286361108709,16.0
112461.01261246149,2.8333333333333335,192.4233741524661,15.4
89109.289104364841,0.10000000000000001,277.34912224131119,15.066666666666666
90687.571193705502,0.6333333333333333,210.64628026854891,13.166666666666666
73133.868295167573,0.16666666666666666,187.97949036229608,11.4
107994.57131929856,1.1666666666666667,212.0155692996895,14.9
78666.365201958382,2.6000000000000001,238.43349789656131,16.666666666666668
44558.349623859867,6.0,167.32101142903517,15.033333333333333
108071.73534033234,3.6333333333333333,152.42161387984973,15.866666666666667
98124.792492596374,1.0666666666666667,282.91264465237617,16.300000000000001
110228.19148048262,1.2333333333333334,224.13569843898304,15.699999999999999
91279.490708194964,1.6666666666666667,237.3994637659963,15.5
118993.28054051823,1.7,263.71250030281766,17.600000000000001
124385.53837331491,2.3333333333333335,303.10342959017999,20.5
82289.053356036879,3.7000000000000002,294.79401548916263,19.699999999999999
129320.8734398995,3.8333333333333335,227.02599533716332,20.066666666666666
122864.71173541044,1.5333333333333334,300.71046753914078,19.366666666666667
113336.05537923743,3.4333333333333331,308.23812436585808,21.399999999999999
129957.31607617471,2.1000000000000001,281.31062777471249,19.399999999999999
87969.502404303697,3.1666666666666665,261.0836778509987,18.233333333333334
119182.28851205303,2.0666666666666669,257.01236472028472,17.466666666666665
70491.16981125086,0.96666666666666667,246.1228046444491,14.433333333333334
88919.791537609213,1.4333333333333333,185.82306948320428,13.266666666666667
50117.941029889764,2.3999999999999999,164.00857149478489,11.866666666666667
90445.741168998269,1.5,162.2040229524068,11.666666666666666
59069.490971877553,0.56666666666666665,200.23748613191978,11.733333333333333
62707.136001091189,1.3333333333333333,133.17361523314716,9.9000000000000004
92653.699381737286,1.3999999999999999,212.31434185276899,13.666666666666666
86299.922854526681,2.6333333333333333,222.28713997660617,16.300000000000001
113059.9652267897,3.0,238.06756694787771,18.766666666666666
109830.00126539376,2.2666666666666666,304.55349758658059,20.233333333333334
137448.6400594216,2.9666666666666668,266.32753573285817,20.300000000000001
122256.94938414506,2.3333333333333335,311.44375383888706,19.966666666666665
101099.55599114558,2.5666666666666669,254.89182763521345,18.300000000000001
98949.598813754448,1.4333333333333333,225.02742822962367,15.0
107242.43405283612,0.8666666666666667,254.10838199790928,15.300000000000001
71586.65776403503,0.10000000000000001,212.01422485342829,11.766666666666667
70917.120570599582,0.40000000000000002,190.85476413423049,11.4
86958.793692368257,0.5,189.36709621754068,11.866666666666667
67466.341335846155,0.83333333333333337,197.56966011636445,11.9
72673.787202428386,0.83333333333333337,158.17783258967037,10.833333333333334
66588.648270147969,0.96666666666666667,168.87044551495191,11.033333333333333
51610.14413979512,1.0666666666666667,160.35615937233328,9.6999999999999993
62500.802598632508,0.66666666666666663,140.81450124967242,9.3333333333333339
71054.461666299423,1.2666666666666666,162.56637043514607,11.166666666666666
77958.40615851598,0.76666666666666672,210.01016703777719,12.266666666666667
60670.880150056611,0.96666666666666667,147.93612498114837,11.199999999999999
27714.152476726213,3.9333333333333331,93.96770664932788,9.3333333333333339
41879.207887939207,4.0666666666666664,95.960714829457771,9.5
74398.075574145492,1.8666666666666667,127.4124660724124,10.866666666666667
62154.152237090741,2.9333333333333331,180.5522102685068,12.666666666666666
72502.482765009379,1.8999999999999999,161.14414784226295,12.033333333333333
97658.51503141092,1.3999999999999999,223.27532968442966,14.666666666666666
95127.729872440919,1.1666666666666667,248.20891745047263,15.6
72711.719367134705,3.0,229.93229596157661,16.033333333333335
84213.246917099779,2.6666666666666665,184.750659912765,14.800000000000001
138297.86225302762,1.2,262.68188801169629,17.566666666666666
124023.8463295847,0.36666666666666664,359.02793636086182,19.933333333333334
104222.04264418648,0.90000000000000002,264.96216694753213,17.366666666666667
129576.54279410589,1.0333333333333334,301.14835116478082,18.600000000000001
115345.30185838068,0.56666666666666665,309.56032097813494,18.266666666666666
100875.79234670807,0.90000000000000002,292.07974887816766,17.366666666666667
97083.441522018562,1.5333333333333334,219.53047767053627,15.733333333333333
77695.694102784895,1.3333333333333333,218.32142050355952,13.466666666666667
49370.944418035644,1.3333333333333333,140.45899079061232,9.8666666666666671
59892.282869818431,0.80000000000000004,116.47991428285901,7.6333333333333337
48425.866148327288,0.066666666666666666,132.8031769587559,7.7333333333333334
36801.049593504409,0.40000000000000002,116.92937168468993,6.6333333333333337
41556.319033189109,0.83333333333333337,105.92349589640477,7.5
58579.450858791111,0.83333333333333337,119.28108913225941,7.9666666666666668
78975.636484594463,0.10000000000000001,191.96076478520882,11.033333333333333
45393.652791406123,1.7666666666666666,157.05175478059348,11.066666666666666
93295.341425322229,1.9333333333333333,135.04943083310846,12.033333333333333
106692.06532381382,1.8333333333333333,250.8568500305403,17.199999999999999
109011.87035916424,1.5333333333333334,271.16159221050015,17.5
63926.304830541223,3.1000000000000001,215.59445454533531,15.966666666666667
85021.711458503923,2.2999999999999998,180.26634697300449,13.533333333333333
77326.5656289873,0.46666666666666667,201.8173072117973,12.0
64232.746926545951,0.43333333333333335,183.29559476825628,10.333333333333334
47550.388437084162,0.96666666666666667,134.00094395899632,9.0
38833.710047496956,3.1666666666666665,101.51397488207313,9.1999999999999993
52505.704964471937,4.166666666666667,106.785834239788,10.633333333333333
93409.104658009703,2.0666666666666669,162.62497757415318,13.6
102537.05692300836,1.1666666666666667,256.67139942657025,16.133333333333333
80747.692303143311,0.80000000000000004,225.43945611986246,14.1
54195.245807313149,1.8999999999999999,153.89022766054057,10.366666666666667
62350.455898758912,2.0666666666666669,152.17400387497904,10.6
69292.40641193022,0.90000000000000002,147.65350524211252,10.133333333333333
81983.545911891575,1.6666666666666667,203.80383626496817,13.199999999999999
66996.948434506834,0.8666666666666667,173.87890991996304,11.1
52997.441908002504,1.9666666666666666,151.84335095926528,10.766666666666667
95920.412887017272,1.2333333333333334,180.35617393380335,12.233333333333333
60416.169036984647,0.066666666666666666,199.37957378488787,11.033333333333333
74257.564821973385,0.36666666666666664,148.21749626325581,10.166666666666666
48195.859375422537,0.033333333333333333,157.59747780864058,8.2666666666666675
41689.394418669093,0.43333333333333335,108.99216750583703,6.9333333333333336
32538.360668991998,1.3333333333333333,90.917629963689862,6.5666666666666664
59284.166666409859,1.2666666666666666,104.84068760372315,8.4000000000000004
83662.63820411278,1.0,178.38863303377485,11.699999999999999
95840.906656094492,0.73333333333333328,225.30695045837527,14.1
116631.92881722983,0.5,288.90526924952468,16.899999999999999
101647.26322216711,2.0,245.45698666709833,17.966666666666665
120192.39759999068,6.4333333333333336,279.78211702296835,22.800000000000001
126305.14934680852,3.8333333333333335,298.52670581124028,24.0
147150.57925785662,3.6000000000000001,378.40840017319454,24.800000000000001
119504.05192518121,2.2666666666666666,302.06391366530056,20.066666666666666
115416.21424583865,0.59999999999999998,272.02061038151265,16.233333333333334
112878.74348018022,0.10000000000000001,309.10155984662418,16.766666666666666
86088.399003873361,0.26666666666666666,199.93464393999483,13.833333333333334
83782.191701923119,3.8666666666666667,203.04863264464515,15.833333333333334
121117.63975577634,2.8666666666666667,231.14122558271831,18.133333333333333
104056.2310941523,2.3999999999999999,310.24732820063713,19.300000000000001
141556.24899990825,1.5333333333333334,308.00262863947296,20.0
107108.66511178648,0.6333333333333333,313.78341923288002,18.266666666666666
87531.242677608054,4.0,221.57893437064192,17.666666666666668
121974.48931119993,3.3666666666666667,218.6202337039681,18.366666666666667
154331.54725742873,1.8333333333333333,340.36400677424473,23.066666666666666
135300.61780250276,2.7333333333333334,378.57537099900611,24.166666666666668
89500.704725992488,4.4333333333333336,305.84837851145932,21.066666666666666
78694.210940492747,6.9333333333333336,211.26801872154783,19.133333333333333
70890.328343268193,8.5666666666666664,193.93995091640164,19.5
71299.214747873237,10.833333333333334,144.48162168520008,20.366666666666667
125736.34230490908,6.9333333333333336,215.16945124705546,22.899999999999999
127778.53236231678,3.5666666666666669,353.56383570300051,23.5
130102.01510776841,2.5333333333333332,300.06640311719377,20.033333333333335
65113.707289487247,0.033333333333333333,225.52888895572283,11.766666666666667
35650.504650755895,0.6333333333333333,123.82952647990051,7.5
40490.19369877279,0.56666666666666665,64.61529161498612,4.7333333333333334
33660.510079942273,0.20000000000000001,86.417975561943877,5.333333333333333
52609.224433267889,1.9666666666666666,93.892155620077858,8.4666666666666668
64851.611560492056,1.7666666666666666,155.88651248569622,11.133333333333333
49913.508279347654,3.6666666666666665,158.73156161063235,12.833333333333334
99659.501029838415,2.1666666666666665,185.08688810546795,14.300000000000001
91732.591808396988,0.36666666666666664,245.24141040450772,14.1
87317.334811720386,1.3666666666666667,204.92320531062302,14.5
104170.89264081993,1.6000000000000001,242.28408576345694,15.333333333333334
59627.686504527388,1.2666666666666666,227.87988169464759,14.4
52974.88082946097,4.0666666666666664,164.20323111738719,12.866666666666667
62517.159503911455,1.8333333333333333,114.4138689326749,9.5666666666666664
91311.053088120461,0.53333333333333333,203.66717540499857,12.433333333333334
51155.190495877563,0.36666666666666664,179.53122913448794,9.7666666666666675
45312.647260355385,0.80000000000000004,128.14318984935775,8.1999999999999993
49795.41913187773,0.40000000000000002,129.34200417745066,7.5333333333333332
49408.844894546673,0.13333333333333333,110.47657290355274,6.833333333333333
69611.724013293351,0.53333333333333333,172.05374378024229,10.466666666666667
64823.822790392362,1.1333333333333333,160.31601721969065,11.066666666666666
52440.699661926141,3.6333333333333333,147.01539561821554,12.466666666666667
54412.17377553173,5.9666666666666668,142.98091900687044,13.933333333333334
84783.258142689258,7.5,135.98550749481689,17.533333333333335
150461.47644772765,5.2000000000000002,275.39402454716651,23.233333333333334
147436.42489531857,2.4333333333333331,382.34290059514291,26.033333333333335
149166.65477441894,2.8999999999999999,353.692005986472,24.333333333333332
138325.31524724001,1.4333333333333333,343.0340753176535,21.199999999999999
78610.416333725021,2.2999999999999998,274.73429423648537,17.366666666666667
90842.455986024186,2.1666666666666665,204.40807268220507,14.766666666666667
98837.741836488014,0.53333333333333333,244.541316311315,14.866666666666667
102047.47441848974,0.96666666666666667,223.29034463142798,14.633333333333333
85328.060435973268,0.69999999999999996,220.56360927639747,13.733333333333333
70463.673073784943,1.8666666666666667,208.99911548109716,13.866666666666667
85540.489572866529,3.3999999999999999,209.62863533199533,15.5
110382.61259883874,1.7,205.7980955601829,15.666666666666666
101023.54001104852,1.3999999999999999,286.98044546568303,17.866666666666667
113325.42658046345,1.6666666666666667,267.68760517619819,17.266666666666666
110476.04319510296,1.0666666666666667,256.79181894496895,16.399999999999999
85974.583635092786,1.1666666666666667,229.66721118756595,14.699999999999999
59175.178100085104,1.1333333333333333,209.84783100558383,12.199999999999999
73026.215391085047,0.90000000000000002,163.07986594646536,10.6
71738.076938735947,0.066666666666666666,182.1545978720219,10.033333333333333
56908.858909257884,1.2666666666666666,133.06648734819566,9.9666666666666668
93624.946661311988,1.6000000000000001,154.40434811982189,12.4
95065.305058743135,0.40000000000000002,261.87833501393845,15.166666666666666
96532.863246878085,0.83333333333333337,218.03138700390448,14.433333333333334
93904.030487783733,2.1333333333333333,245.26196826785423,15.699999999999999
95065.280328380861,0.90000000000000002,221.55003026059754,14.699999999999999
97185.656855350113,0.59999999999999998,209.77863406309595,13.800000000000001
69750.036582246932,0.80000000000000004,198.43050364176858,12.266666666666667
83520.907964200494,0.83333333333333337,190.91726352104573,11.699999999999999
71456.512894410364,0.33333333333333331,197.73739706127387,11.766666666666667
62558.478803607832,1.1000000000000001,181.19683975681184,11.433333333333334
54029.745153067117,1.3666666666666667,128.61827681171118,9.4666666666666668
72537.788978444602,0.93333333333333335,138.94074342273643,9.7666666666666675
63836.255542029139,0.43333333333333335,173.4236708176646,10.733333333333333
64790.444339325797,3.0,151.45212870431169,12.233333333333333
102262.93893279828,2.0,205.76927833159374,15.1
112032.72778983691,1.0666666666666667,275.40842375441093,17.333333333333332
97456.68486205177,1.3666666666666667,300.2583405507072,17.600000000000001
62974.23859638429,2.9666666666666668,193.5161711628692,14.266666666666667
108261.70020360444,2.2333333333333334,213.94980604182624,15.9
98787.531400299325,0.0,296.63949986212481,15.5
70990.173337543049,0.90000000000000002,194.46988234343229,13.066666666666666
102797.21588095439,1.1666666666666667,205.27739468124867,13.266666666666667
70842.843320288375,0.6333333333333333,211.43486581571628,12.933333333333334
61282.862385083703,3.6000000000000001,179.7342410563719,13.800000000000001
115176.99994934631,2.5333333333333332,195.95931527950921,16.199999999999999
127020.3031656917,1.2,326.26462172125633,19.466666666666665
109378.61590341904,1.3333333333333333,286.55236328153245,19.066666666666666
76028.174602747502,3.0333333333333332,244.64734292462799,16.100000000000001
51539.876582525969,3.9333333333333331,164.62007871170954,13.0
66267.941269215808,2.2000000000000002,107.91364262077779,10.1
70845.783027527257,0.10000000000000001,191.17512337163967,10.5
80333.543403931093,0.43333333333333335,202.44061157719764,12.033333333333333
63681.047639049866,1.1666666666666667,174.79741917608175,11.066666666666666
83185.468341120722,1.4333333333333333,188.01948473489878,13.366666666666667
105123.8811493237,0.66666666666666663,230.50672395250973,15.1
112318.31042178517,0.76666666666666672,265.54191645767173,16.399999999999999
73786.735275910774,2.4666666666666668,224.87744181987534,15.800000000000001
70915.42389952649,5.4000000000000004,191.58365214272587,16.533333333333335
124741.26512051107,2.6666666666666665,253.97486248166803,18.533333333333335
93932.921243388017,1.2333333333333334,290.86526743950003,17.566666666666666
106099.95257153305,1.3999999999999999,249.2119969577451,16.133333333333333
111468.49767175008,0.56666666666666665,258.75231839362897,15.733333333333333
85820.142840534638,1.3,260.91906615015768,15.800000000000001
72643.566578743048,1.9333333333333333,162.46230544193048,13.333333333333334
61214.824687376917,4.0999999999999996,178.92674768453531,13.833333333333334
77409.702348331441,2.1000000000000001,158.0844063707568,12.199999999999999
77023.608609350151,1.9666666666666666,194.82218717451684,13.533333333333333
79659.987162859179,1.2,185.62963384094934,12.6
107323.88755067544,0.46666666666666667,224.5055274878419,14.300000000000001
104560.49344282142,0.83333333333333337,276.52774163817372,16.800000000000001
71396.347879483874,3.4333333333333331,207.97824674714849,15.766666666666667
98856.837411562941,2.6000000000000001,207.14539790985515,15.9
113234.77332813636,0.69999999999999996,270.45274162286148,16.566666666666666
71800.763448627156,0.0,249.07648571841972,12.966666666666667
48496.05275114168,1.5333333333333334,121.42854932053315,9.8000000000000007
72014.538755879359,4.1333333333333337,140.68663625420439,12.466666666666667
99168.255442889233,2.0666666666666669,196.20077867443317,14.766666666666667
93921.038952125862,1.0333333333333334,274.21945535529483,16.600000000000001
75842.855036237408,1.1666666666666667,186.11516163727521,12.633333333333333
68916.905687597871,1.8,164.19409510328632,11.300000000000001
71567.385366485294,1.0333333333333334,162.23256043794819,11.300000000000001
43899.848824913752,3.5,141.33233454344469,11.466666666666667
45215.565048274933,5.2333333333333334,119.93537863738791,12.300000000000001
114270.28763680068,2.7666666666666666,165.95932190955102,14.933333333333334
96203.892120021788,2.1000000000000001,294.37124799065737,17.666666666666668
126261.53765803851,2.3999999999999999,249.35574006770108,19.199999999999999
153844.62273354561,1.7,354.51070606774744,22.300000000000001
131135.31446495754,0.93333333333333335,369.2111678350667,22.366666666666667
167057.01522163866,1.6666666666666667,364.8316047184689,23.766666666666666
121469.25479423492,2.6666666666666665,358.33465804069061,22.966666666666665
121732.3193792714,2.5666666666666669,259.52289421781632,20.166666666666668
129004.5531001065,1.5666666666666667,300.91052826328507,19.733333333333334
115920.17858254473,0.46666666666666667,312.19839675513157,17.966666666666665
67467.094667021025,0.26666666666666666,219.09106580347978,12.466666666666667
66194.344373823347,0.73333333333333328,164.92592707691654,9.8333333333333339
37667.574647044341,0.20000000000000001,130.46466573194732,7.333333333333333
35933.563579602742,0.43333333333333335,87.596765337125689,5.5
30479.670876538938,0.43333333333333335,78.068760132660969,5.0
36437.570977879826,1.7,77.054610610651935,6.6333333333333337
60841.954221353837,0.80000000000000004,124.69645808041106,8.3666666666666671
50217.21503863344,0.33333333333333331,150.88040408428594,9.0666666666666664
54890.581397538204,1.9666666666666666,113.99747014075386,9.3000000000000007
84206.666813800752,2.6333333333333333,186.78910436128501,13.466666666666667
50430.814940554505,3.8666666666666667,179.12012667290114,14.199999999999999
96407.915113636758,3.5666666666666669,142.70889812635647,15.233333333333333
133681.52077389488,0.93333333333333335,299.27688263666079,18.300000000000001
124727.31221203388,0.33333333333333331,349.86815452603122,19.766666666666666
92712.250821124078,0.80000000000000004,291.0899004271979,17.100000000000001
76414.71721992096,3.8333333333333335,216.79976141328638,17.199999999999999
87327.099799620541,3.5666666666666669,168.29183010764953,15.433333333333334
110488.68666902457,1.8333333333333333,237.00884957099998,16.933333333333334
96116.118879519185,3.3333333333333335,263.78336718128645,18.566666666666666
100797.80895927735,2.3333333333333335,217.29093695999089,15.9
77961.964133027417,2.5333333333333332,226.37285875367402,15.699999999999999
48929.791874627248,4.9333333333333336,157.38262135644695,13.433333333333334
89345.269440418095,2.0333333333333332,129.89670162875453,11.533333333333333
99609.262210404981,0.23333333333333334,267.75108893005898,15.233333333333333
82972.967122261209,0.76666666666666672,246.26258638207273,14.4
78920.867262964966,1.7333333333333334,162.09166903833255,12.933333333333334
72073.057606269082,4.0,211.84641337275309,15.266666666666667
31494.346761215125,4.7666666666666666,131.35014231497161,12.233333333333333
79044.298339268906,3.2666666666666666,102.51420675856123,11.233333333333333
91433.581355956761,0.56666666666666665,220.33727744493419,13.666666666666666
113916.25318580227,0.6333333333333333,259.88228997123707,15.766666666666667
62808.675878585447,1.2333333333333334,179.60838155159206,13.266666666666667
46588.328425692343,7.2666666666666666,98.494326930999861,14.199999999999999
125646.51319679648,4.0333333333333332,180.00353077192443,17.066666666666666
93612.205898910659,0.8666666666666667,319.10341186289844,18.300000000000001
58483.245739191851,4.9000000000000004,185.00031048873819,16.100000000000001
140255.97468549656,3.0333333333333332,196.40023209396634,16.833333333333332
117767.00296331391,0.93333333333333335,352.28317344959635,20.166666666666668
69302.249040126029,3.7000000000000002,241.67226348160506,17.666666666666668
49239.184849307785,6.0333333333333332,158.6756430330569,14.333333333333334
46761.761791534162,6.833333333333333,111.51852424660771,14.133333333333333
44430.01773101111,9.0666666666666664,92.919803641784,14.699999999999999
107549.97958107451,4.8666666666666663,137.60291733805863,17.0
123421.03819574557,1.0333333333333334,329.44841393267507,19.0
78946.178817911394,1.9666666666666666,263.05807503316254,15.666666666666666
49295.886516136161,1.2333333333333334,113.02968779044417,8.0
61320.248536290746,0.56666666666666665,144.41398882707324,9.0999999999999996
87541.530043382052,0.10000000000000001,208.93672596977888,11.9
54573.365764518414,0.10000000000000001,173.79055046301019,10.233333333333333
74023.49649666129,1.0666666666666667,150.25483902914127,10.633333333333333
74562.964959412406,0.23333333333333334,188.59576122458736,11.166666666666666
101582.80515181347,0.29999999999999999,226.09788229634492,13.566666666666666
65504.719484035733,1.4333333333333333,206.06090072050023,14.033333333333333
128560.91830526838,2.8999999999999999,219.56129708308205,18.166666666666668
133072.93124381884,2.8999999999999999,362.91760765068102,23.199999999999999
116436.39945535501,2.9333333333333331,267.30219541952641,20.833333333333332
150086.52263491787,3.5,283.98383959831739,21.966666666666665
106117.38433851568,2.3666666666666667,331.7355331222908,20.5
102715.44783793528,2.2999999999999998,201.31587976989942,15.933333333333334
96721.231751530708,0.6333333333333333,230.46281499304584,14.133333333333333
104725.66442006618,0.76666666666666672,231.68001343215005,14.833333333333334
79019.390161456991,1.1000000000000001,236.30745001916532,13.699999999999999
136796.72864764655,0.80000000000000004,254.18232561998863,18.066666666666666
111424.03940930605,1.0666666666666667,336.27811041434012,19.199999999999999
85654.839741285381,3.2999999999999998,267.1993645661538,18.766666666666666
110985.83295282023,2.3999999999999999,248.32496256016094,17.100000000000001
86969.950771498654,1.2,216.99967415258527,14.800000000000001
96116.533738236845,1.3999999999999999,209.20051363099844,14.133333333333333
92041.786035024154,0.93333333333333335,232.85398489284105,14.866666666666667
105560.23766054786,1.6333333333333333,235.72516091782569,16.333333333333332
86112.483567328905,3.7000000000000002,242.90480514422245,18.066666666666666
133989.54890263415,2.8666666666666667,278.98883916470618,20.600000000000001
93234.366518724972,3.6333333333333333,288.38256140695768,19.699999999999999
134944.65681966679,2.1000000000000001,270.88215304003194,18.800000000000001
111718.35206967947,0.23333333333333334,303.93268593473306,17.633333333333333
69905.086665297247,2.1666666666666665,220.50382748115314,14.866666666666667
63506.757160078101,2.2000000000000002,127.91184091034849,11.366666666666667
68438.974804207304,1.8333333333333333,174.77167492425977,11.833333333333334
83768.244519830318,2.1666666666666665,200.14745961774486,13.466666666666667
65361.196822387603,1.8,165.05865160071178,12.333333333333334
79440.419572393934,2.0,159.40707117750523,12.966666666666667
73576.461308296086,0.59999999999999998,218.83739047505944,12.533333333333333
87491.246339269594,1.8999999999999999,179.77432915850991,13.233333333333333
134955.27688594066,3.2999999999999998,258.03508957212114,18.966666666666665
140844.006466099,2.2666666666666666,382.85824461522583,24.433333333333334
119549.83858459377,3.3999999999999999,345.8915382220747,25.300000000000001
82361.593429130909,7.5333333333333332,260.75437269658886,22.066666666666666
107958.14043245607,4.4666666666666668,184.13026438921653,17.5
130435.17213580309,1.3999999999999999,303.07839963966342,18.699999999999999
99287.369660735771,0.90000000000000002,287.7887403983608,16.800000000000001
52073.431171311844,1.1333333333333333,128.70310399136764,10.266666666666667
31675.979910076989,3.0,110.80346681299764,8.8000000000000007
63163.469865415711,1.2666666666666666,101.18414900571503,7.8666666666666663
66925.77026966447,0.10000000000000001,157.79324470904541,9.4666666666666668
39040.534647239772,2.2000000000000002,117.46670884770312,9.6666666666666661
40490.293051955559,5.0666666666666664,106.5255392423005,11.366666666666667
96350.627133746457,2.6333333333333333,160.33208256327347,13.866666666666667
89491.337184623801,1.0333333333333334,247.48197367407835,14.833333333333334
101758.56692216033,2.0,252.22740124887261,16.333333333333332
113311.37299807045,0.93333333333333335,249.59325779316194,16.300000000000001
76484.592960525842,2.8999999999999999,252.59059489972412,17.166666666666668
120991.12597567656,2.5333333333333332,238.0128135987116,17.933333333333334
106464.83669565602,0.46666666666666667,285.29728083692464,16.633333333333333
103034.86457353123,0.29999999999999999,255.9827449129439,15.033333333333333
63699.19601979127,1.0666666666666667,191.03001870708246,12.199999999999999
65992.723500722394,3.4333333333333331,150.70660695734998,12.466666666666667
104656.54556470964,1.9333333333333333,198.66445659475411,14.766666666666667
61078.332859988026,3.7000000000000002,212.96917259973756,15.633333333333333
101022.08837189342,2.9666666666666668,174.50366532149687,14.766666666666667
82097.533929010475,1.6000000000000001,246.43908247257838,15.033333333333333
79762.308128023084,1.6000000000000001,192.30071743481912,13.266666666666667
103341.21888394182,1.0,228.88940983178185,14.5
84398.724389251322,2.0666666666666669,222.32682401327526,15.300000000000001
122217.7960065886,2.6666666666666665,215.34349439830427,17.5
167694.95744679685,0.90000000000000002,367.94660857590651,22.833333333333332
103572.15619229968,1.5333333333333334,338.79435321428349,20.866666666666667
126856.25799887143,1.7,232.55368262061631,18.433333333333334
102916.69773340589,0.066666666666666666,317.57143975786806,16.833333333333332
93167.408779433084,0.83333333333333337,193.98457004855817,13.699999999999999
71053.713888832455,2.7999999999999998,194.68076739046089,13.866666666666667
65154.729110597764,5.0333333333333332,157.07728304127914,15.5
130253.92113635197,4.3666666666666663,187.55662610555797,18.766666666666666
105794.47506291298,3.5,323.53252476204995,21.633333333333333
107974.88924364923,3.0,217.40170613324889,18.300000000000001
101480.78635160584,2.2333333333333334,254.86525980216612,16.699999999999999
98642.215834413277,1.2333333333333334,239.36282901556436,14.866666666666667
67589.601946843919,0.6333333333333333,209.44796261708333,12.0
75238.713385790092,0.56666666666666665,190.71135231170632,11.800000000000001
63639.706805449277,1.4333333333333333,179.29384919173353,11.566666666666666
67962.973805211237,3.5333333333333332,158.94253694002089,13.466666666666667
108791.15441808318,2.3999999999999999,198.34806101005017,15.4
124584.94666114052,0.16666666666666666,338.6865189152839,18.633333333333333
116891.24537380511,0.66666666666666663,322.42955727637604,18.733333333333334
100746.9606594248,1.3333333333333333,264.73226918445698,16.833333333333332
117163.52647811048,1.4333333333333333,267.0916968047772,17.933333333333334
113250.0332479889,1.9333333333333333,296.73775639307746,18.766666666666666
55719.473367375278,3.7000000000000002,211.46744709993951,15.366666666666667
70645.856294760713,2.9666666666666668,93.671446800390243,11.633333333333333
67608.667849860591,2.0333333333333332,195.08969488503965,12.433333333333334
77813.897168771233,1.2666666666666666,167.49417483095306,11.699999999999999
49495.513869760252,0.8666666666666667,145.41147166693318,9.0
35189.781207659071,1.8333333333333333,118.22900112969401,8.8666666666666671
68349.890796130843,1.2,124.39068864535355,8.9666666666666668
38035.216138208365,0.76666666666666672,137.02692782594113,8.1666666666666661
15714.547177300859,2.1333333333333333,68.335600664317312,5.9666666666666668
43191.361063757678,3.2000000000000002,70.122157288942674,7.7999999999999998
76207.737118307326,1.2,141.48452374043998,9.9000000000000004
64560.844616777998,0.83333333333333337,201.42409822451447,12.1
94126.814557925129,1.1000000000000001,216.3937818454726,14.1
75307.961486551343,1.3,221.44694779622463,13.666666666666666
83622.005718129411,3.1666666666666665,203.9990709140682,15.1
58469.365271208218,4.166666666666667,196.2448141466123,14.666666666666666
95721.208313815892,3.8666666666666667,156.91814641906555,15.566666666666666
103280.08669692028,4.4666666666666668,249.71573391574273,18.933333333333334
108884.96460504289,2.4333333333333331,244.37323099776992,17.566666666666666
89641.593958803278,2.7666666666666666,234.68147134378214,17.266666666666666
108203.10365486992,2.1666666666666665,233.08330371902605,16.033333333333335
75467.372606469886,1.6666666666666667,228.62407580564906,15.199999999999999
82705.24431266138,2.1000000000000001,179.39704553459313,13.866666666666667
86685.235032100871,2.0666666666666669,223.16848168425241,14.566666666666666
86613.523262954768,0.76666666666666672,220.85698114892085,13.333333333333334
60511.489030741272,0.73333333333333328,172.73607126123161,10.933333333333334
80936.386597471093,0.83333333333333337,165.83681687560863,10.966666666666667
61288.187755279963,1.1000000000000001,163.41849782530736,10.9
65167.083046956053,2.6000000000000001,166.736096157438,12.1
71147.574046956885,1.9666666666666666,170.53567713885954,12.266666666666667
74206.09139881689,1.2333333333333334,201.96711085326558,12.766666666666667
55348.837652931106,0.40000000000000002,160.95657168796606,9.2333333333333325
63178.500419561729,0.96666666666666667,130.13284124266559,8.8666666666666671
46510.066154467015,1.0333333333333334,144.05693376561965,8.6666666666666661
53441.569320094241,0.93333333333333335,110.82287492753569,8.5
43007.674220682573,1.0666666666666667,120.27980613379238,8.0
54283.72952337841,0.83333333333333337,106.60900665425255,7.6333333333333337
53102.379689603084,1.1000000000000001,137.06048557311354,8.7666666666666675
43477.912079915288,2.8333333333333335,107.39192574852082,10.1
39249.880275340518,5.2666666666666666,114.87063298501837,11.966666666666667
108344.97249481357,3.2333333333333334,165.22474029137325,15.066666666666666
75777.478998915496,2.1333333333333333,246.07427420055461,15.566666666666666
78704.198092956271,2.0333333333333332,172.56497709196549,12.933333333333334
53836.343020977532,0.46666666666666667,161.31210310640645,9.4666666666666668
86113.517109303139,0.16666666666666666,188.97922525320675,11.233333333333333
66918.728998998165,0.23333333333333334,186.77741101565658,10.966666666666667
85264.123114362301,2.7666666666666666,193.59990510657119,15.133333333333333
125737.60256687491,1.8333333333333333,275.07099076709278,18.666666666666668
88345.905870628834,2.3666666666666667,289.33878902823488,18.899999999999999
88522.034595654623,5.3666666666666663,217.53411874561058,18.133333333333333
128937.99679437339,2.6000000000000001,247.12643763355774,18.166666666666668
113815.20548276276,0.83333333333333337,329.0880938958768,19.633333333333333
71772.268742052329,4.2000000000000002,229.73623845149257,17.366666666666667
101629.65462130777,2.7666666666666666,187.58179471824027,14.933333333333334
97407.849372396857,1.5,242.71314374185329,16.0
81212.897480514614,1.2333333333333334,206.88361388752986,13.733333333333333
88659.770912490058,1.5666666666666667,220.92250204397286,14.266666666666667
88755.010273145774,2.1666666666666665,231.16122597590945,15.133333333333333
123397.45276226764,1.5333333333333334,241.73718220169715,16.833333333333332
72023.373466734221,1.7,287.8937498839083,16.966666666666665
46473.290694546173,4.9666666666666668,146.04941681370934,13.933333333333334
79505.849245140475,2.9666666666666668,109.87864744811203,10.9
71963.461329731959,1.3,206.64865894862558,13.066666666666666
86226.769265728581,0.90000000000000002,183.98444163041748,12.333333333333334
79060.019977930395,1.0666666666666667,198.14633865961125,13.0
112998.30669080312,1.1333333333333333,252.26896949144697,15.933333333333334
83074.303474047003,1.9333333333333333,249.30485358350765,16.566666666666666
119291.49457249565,2.2666666666666666,245.09813562777205,18.033333333333335
99185.308632126122,2.3999999999999999,289.06589232070763,18.666666666666668
94935.365528056354,2.2666666666666666,228.13740378962993,16.266666666666666
70131.106219644746,2.5,206.26861431038233,14.033333333333333
72856.355313718886,1.4666666666666666,172.78658121737416,11.9
49843.158065114454,3.0666666666666669,125.57709104304469,10.866666666666667
74274.769257068314,1.5666666666666667,153.80152804621105,11.0
57086.505608610045,0.43333333333333335,179.3386512007792,10.433333333333334
91149.578515287052,0.56666666666666665,193.10392637939603,12.0
88644.052286348029,0.53333333333333333,216.83818648117784,13.199999999999999
85901.064480358924,0.93333333333333335,215.7604531882979,14.300000000000001
72773.010374929465,1.6666666666666667,173.80964442766992,13.066666666666666
50646.401256122466,2.8999999999999999,145.29665485156508,10.9
47778.584546361773,3.1666666666666665,96.036091495561848,9.0666666666666664
82215.60126255099,1.7333333333333334,159.75842056558321,11.566666666666666
101383.1987073366,0.90000000000000002,246.17364967841962,15.6
88516.950809374452,1.3333333333333333,237.18634610411334,15.333333333333334
84583.498952193724,0.56666666666666665,206.96952790477312,12.933333333333334
63633.369495046776,0.40000000000000002,192.63045341178525,10.766666666666667
73363.32455344082,0.16666666666666666,166.48021920729008,9.9666666666666668
69119.710176616223,0.40000000000000002,159.65004549064068,9.7666666666666675
49202.355357130422,1.6000000000000001,153.36208724102619,10.300000000000001
70570.278866349894,1.6666666666666667,152.22263389488037,11.533333333333333
71016.769609323048,2.8999999999999999,183.75171593018007,13.666666666666666
125290.61718541855,1.7333333333333334,205.80222341243035,16.399999999999999
116236.19124858599,0.29999999999999999,351.89793786203188,19.100000000000001
111644.86608741255,0.83333333333333337,304.31922295774342,18.266666666666666
93413.176080519974,2.7666666666666666,237.02508223820732,16.433333333333334
87118.424288085007,4.2333333333333334,235.7491453898605,18.333333333333332
113042.24990477946,4.2000000000000002,216.81397699548427,19.399999999999999
156958.12822123774,1.2666666666666666,357.50536111889511,21.766666666666666
108955.97595358481,0.83333333333333337,352.69946102947176,20.266666666666666
92549.352581905914,2.7000000000000002,241.81566240334553,16.833333333333332
117868.06321237989,1.8,263.67830469653268,17.933333333333334
110867.23280226553,1.3,293.33875731899747,18.399999999999999
46106.142430328429,3.6333333333333333,188.99757604322579,14.1
86398.900369862997,2.0333333333333332,145.0802653441533,11.266666666666667
60470.715767813381,0.20000000000000001,199.56986320062049,10.966666666666667
63678.377321226588,0.90000000000000002,138.72151543552667,9.5
83654.440078216183,1.1333333333333333,205.16742917645394,12.733333333333333
63341.580948347037,1.6333333333333333,212.36532504848972,13.433333333333334
54903.487069115283,3.8333333333333335,177.70614285172556,13.666666666666666
89423.392920903309,1.6666666666666667,191.35701615081845,13.4
82457.685515222067,0.76666666666666672,214.5559601655369,13.166666666666666
67791.943004383545,1.9666666666666666,182.80997506110228,13.166666666666666
106575.37539984488,2.2000000000000002,190.42530973953563,14.833333333333334
80579.445071168331,2.5333333333333332,250.81167475540562,16.866666666666667
96758.301334631353,2.0666666666666669,201.8514696172916,15.5
109409.20484476347,1.1666666666666667,253.30913575992307,15.933333333333334
81043.189977971415,0.69999999999999996,239.40909849378008,13.9
72048.215893650282,1.3666666666666667,181.70162826009786,12.4
84195.346897377181,0.80000000000000004,204.25346891572855,12.233333333333333
77266.737506905411,0.69999999999999996,197.98754446692229,12.366666666666667
63811.631149237357,0.83333333333333337,178.21987457718333,10.9
65511.445007653063,0.20000000000000001,162.7595667899563,9.8333333333333339
52264.563219702817,0.066666666666666666,147.32443212958108,8.6666666666666661
45585.584534699694,0.59999999999999998,93.935893625468552,6.5999999999999996
46045.776067276063,0.23333333333333334,117.83478194624739,7.0666666666666664
54885.748432570341,0.033333333333333333,150.33032522384201,8.2666666666666675
50813.221581898011,0.56666666666666665,134.27661117573371,8.5333333333333332
54814.386370298118,0.53333333333333333,136.36786028429958,8.3333333333333339
47407.711984512956,0.36666666666666664,118.80702274017099,7.833333333333333
39935.659788766039,1.0333333333333334,116.47185367729978,7.2999999999999998
42088.380273687224,1.1000000000000001,101.6069596103514,6.9333333333333336
28130.820350073784,1.4333333333333333,105.72098771660872,7.2666666666666666
66970.772525720255,1.3999999999999999,121.15512776104232,9.3000000000000007
45652.355547809522,2.0666666666666669,139.49871520448895,9.9333333333333336
55738.320145530415,1.3333333333333333,118.84750030157865,8.8666666666666671
70781.32452987021,0.43333333333333335,182.10945597817363,10.733333333333333
36066.559350549309,1.0333333333333334,126.86207462334468,7.9000000000000004
32241.364297103195,2.5333333333333332,82.837758563678548,7.7000000000000002
73732.978627163116,1.5666666666666667,134.10801495171356,10.133333333333333
48353.277799399613,2.1666666666666665,145.81385311716409,10.633333333333333
70611.664117453649,2.3999999999999999,106.10246233226727,10.666666666666666
88257.763774947627,1.3,213.7507929617951,13.833333333333334
63539.698985253453,2.2333333333333334,195.63331882595594,14.1
115091.38038760281,2.0666666666666669,175.64962691219898,14.699999999999999
84906.046453882052,1.3666666666666667,271.10542812111839,16.366666666666667
95222.396944226377,1.1000000000000001,206.15618241693292,13.666666666666666
93045.989752037669,0.16666666666666666,236.81065117600079,13.4
79415.537975996936,0.33333333333333331,221.18076483342873,12.966666666666667
71643.723671019281,1.7,177.21490380410893,12.800000000000001
82311.597629052718,3.4666666666666668,224.32182930546887,15.866666666666667
55263.196968762008,4.7999999999999998,174.46109175403635,15.0
115559.68185086083,3.1666666666666665,190.96255730712898,16.133333333333333
115767.60220085138,0.83333333333333337,312.50409626693562,18.033333333333335
77108.174905497275,0.8666666666666667,241.95160367275002,14.333333333333334
95825.955027040007,0.53333333333333333,207.35314256127734,13.1
71207.929574887938,0.5,210.35017293830586,12.1
82390.36094822298,1.4666666666666666,181.47175751506802,12.733333333333333
88540.862403142528,1.5333333333333334,202.21322702237561,13.9
84054.05351237471,2.5,245.45966662100048,16.066666666666666
113037.86609856856,2.1333333333333333,238.95355026489443,17.266666666666666
138964.56080475624,1.1333333333333333,306.45959069850755,19.300000000000001
81258.43029065679,0.16666666666666666,307.21002988832407,16.566666666666666
63493.953811730746,1.3666666666666667,147.90490538354896,10.933333333333334
42706.007481096291,2.0666666666666669,122.07871758019525,8.7666666666666675
67241.313080435182,0.90000000000000002,113.30212205954487,8.4000000000000004
76280.352643650287,0.066666666666666666,200.39166246976615,11.366666666666667
76319.63142283741,0.66666666666666663,194.99143425027461,12.533333333333333
87208.968745536331,1.1666666666666667,209.13801094981548,13.5
80866.699517992165,0.40000000000000002,212.08547051142375,12.800000000000001
84325.809038386884,0.5,196.94307746142158,12.266666666666667
74150.449305683636,0.40000000000000002,189.89704528133498,11.166666666666666
81617.827737801883,1.0333333333333334,203.35463097987426,12.666666666666666
79721.811483479978,0.56666666666666665,217.95582791226852,13.333333333333334
66402.022580211269,2.3666666666666667,175.1263546443696,12.633333333333333
92820.963566687933,1.8999999999999999,200.78977273993877,14.266666666666667
63819.724905394098,3.2333333333333334,182.13408908393495,14.6
93114.148090366114,3.1000000000000001,174.13179162288924,15.0
98212.731947477907,0.93333333333333335,256.36759250862281,15.733333333333333
61548.804210439375,0.5,200.47924668771208,11.566666666666666
59845.946741776177,0.5,139.21838503989747,8.6999999999999993
58973.638313702177,0.066666666666666666,153.82713807367264,8.4000000000000004
54343.232623531367,0.23333333333333334,151.13559501168427,9.0999999999999996
67105.184977962941,0.83333333333333337,152.88262535489059,9.6333333333333329
85675.931998672648,0.10000000000000001,212.49553014131422,12.1
71115.542105824235,0.13333333333333333,204.64035324463913,11.6
92393.934203646408,0.66666666666666663,194.84176472264414,13.133333333333333
83822.176826927374,1.1333333333333333,252.39228367505805,15.033333333333333
89558.739451657908,1.1000000000000001,187.55221588444596,13.333333333333334
103559.85995066028,1.2,235.37944241878574,15.166666666666666
100974.3406628161,1.2666666666666666,247.54495323457675,15.9
75396.790324707792,2.7999999999999998,222.11539027736276,15.4
112360.75809608542,2.0333333333333332,251.76380219840718,17.566666666666666
113020.14232170794,1.3666666666666667,272.56953532363269,17.666666666666668
96747.411927643829,0.53333333333333333,275.06672428878483,15.966666666666667
72639.504054211604,2.3333333333333335,193.81490261344968,14.300000000000001
98078.218766715858,1.6000000000000001,196.16881006794833,13.699999999999999
52646.715026914986,1.2666666666666666,204.75997941806455,12.566666666666666
83927.633976690777,1.5,149.45904749627471,11.233333333333333
62935.389148579474,0.066666666666666666,184.03635587681811,9.9333333333333336
50428.731561050023,0.20000000000000001,159.66087824115203,9.0
72952.052473800548,0.53333333333333333,157.45680145989712,10.033333333333333
49219.756725829495,1.2333333333333334,152.88729099123046,9.7333333333333325
72271.209174771138,1.1000000000000001,126.27599527468028,10.266666666666667
98657.186621932633,0.33333333333333331,238.16834579185439,13.633333333333333
82497.692092749814,0.29999999999999999,214.45742084203491,13.300000000000001
94612.108575877399,1.3666666666666667,215.71155005712345,14.5
60498.557509367674,2.8333333333333335,201.92589306975771,14.1
96721.190502265614,2.1333333333333333,186.93220647407693,14.233333333333333
92924.472853033134,0.69999999999999996,235.27049342781513,14.4
58496.380996822263,0.90000000000000002,196.71148902023103,11.466666666666667
37759.696808326895,1.6333333333333333,86.66083931208,7.5999999999999996
68363.686011638973,0.80000000000000004,127.55149242590998,8.5999999999999996
53272.393668760655,0.13333333333333333,154.06530776855931,8.9000000000000004
60415.433718233042,1.7666666666666666,142.49835019961174,10.133333333333333
46912.303062190767,2.8999999999999999,144.82572984605457,10.9
76681.503114621766,1.6000000000000001,170.50901071693463,12.0
95833.795539802406,0.59999999999999998,222.79851732081781,13.6
87730.083101346492,0.59999999999999998,216.55588853294168,13.6
103429.27303996388,0.90000000000000002,261.45648617004753,15.933333333333334
48143.68630861758,3.6666666666666665,183.61434678305767,14.9
26979.422952787121,9.0333333333333332,67.881907762158846,13.800000000000001
18743.739093443412,11.033333333333333,56.771359775077833,14.1
99683.546672555662,5.0999999999999996,109.76430207286595,14.699999999999999
110095.88777709122,0.23333333333333334,296.52825039809267,16.633333333333333
86281.886268484886,1.1666666666666667,247.25352376413412,14.766666666666667
89106.456979063063,1.4666666666666666,199.59383403000103,13.633333333333333
76245.292182128193,2.0666666666666669,246.44656210088357,15.6
91521.562357550807,1.6000000000000001,205.43488696212319,14.866666666666667
65252.377091528986,0.93333333333333335,189.66596287824242,11.666666666666666
24727.984972690636,2.1000000000000001,98.79707282754984,7.5999999999999996
50336.177295120586,1.2,68.071817883936944,5.833333333333333
50345.672074671616,0.10000000000000001,129.91216714752258,8.0333333333333332
36408.981430160376,2.0,106.82559796993191,8.3333333333333339
75278.115905145838,1.9333333333333333,112.09572301057771,10.4
62267.3250436046,3.1666666666666665,172.63400075473155,13.1
129231.82901881555,2.1000000000000001,224.00815538783141,16.833333333333332
88789.300569811399,1.0666666666666667,312.55393049766661,17.5
100221.91012074283,0.73333333333333328,236.35316904012518,15.366666666666667
65049.964770333274,0.066666666666666666,197.6672288975702,11.0
78906.16524735131,0.13333333333333333,182.12550010747924,10.633333333333333
37547.239201724144,0.43333333333333335,137.86022399220801,7.7000000000000002
55865.582534288864,1.4333333333333333,113.58665670017912,8.9000000000000004
73612.065232299821,2.1666666666666665,175.19147270100149,12.333333333333334
62794.698071516272,1.8666666666666667,177.55814237845723,12.5
83565.271400497426,1.8666666666666667,169.09372853287374,13.633333333333333
81069.480754150136,3.2000000000000002,196.57914456688727,14.800000000000001
120147.69652525404,1.5666666666666667,237.1832974115303,15.966666666666667
87586.681798090445,0.8666666666666667,272.47527063541736,17.166666666666668
79394.227908431087,4.7000000000000002,226.46217832502495,17.466666666666665
46391.263883558946,6.5,134.25098395229188,14.699999999999999
72454.799050295056,9.5,145.60726042285407,18.333333333333332
44999.985369883048,10.033333333333333,158.90797734809613,18.399999999999999
132477.24117775453,5.666666666666667,189.8951729053382,20.5
105842.21775086524,1.5333333333333334,339.65856631470893,20.366666666666667
113988.88581693312,2.0666666666666669,247.97686765253249,18.033333333333335
124261.18650999277,2.7000000000000002,291.2057108370222,19.533333333333335
153585.64583692316,1.8,295.36741647721175,22.033333333333335
117341.96470973444,2.8333333333333335,378.38044635227686,23.566666666666666
94613.808896131799,5.9666666666666668,282.47834373900406,22.033333333333335
61392.826015984181,8.0,180.42766503084664,17.766666666666666
52973.447140416181,9.4333333333333336,128.0890228367924,17.100000000000001
104026.0301166166,4.5,193.08774151202155,17.566666666666666
100785.03143146541,0.40000000000000002,288.07780650532771,16.233333333333334
88878.547290560644,0.46666666666666667,232.04112369112943,13.366666666666667
36294.455521940174,0.40000000000000002,132.59347166644881,8.0333333333333332
16886.462167910682,2.8333333333333335,65.744663608120234,6.4666666666666668
86070.896987743705,1.3333333333333333,136.02385272745934,10.133333333333333
41917.07226727208,0.066666666666666666,173.42475562502369,9.0666666666666664
72231.447648630245,0.96666666666666667,118.54529024452225,9.6666666666666661
80201.326194362206,0.46666666666666667,195.52457480446753,11.933333333333334
82386.786208478632,1.7333333333333334,184.72976887652359,13.566666666666666
109964.75288344102,1.6666666666666667,237.48100811716611,16.066666666666666
98101.895510254981,0.90000000000000002,280.9442812231265,16.666666666666668
69152.310289958084,2.0,228.41132728482563,14.199999999999999
72193.923161774219,1.1666666666666667,133.11316414674633,10.5
89663.951636040423,0.6333333333333333,220.48600992379716,13.166666666666666
86285.05794605687,0.69999999999999996,218.17632495479893,13.833333333333334
70129.43087175343,3.8999999999999999,192.57470019123281,15.1
37458.874353521249,5.5,156.38773974006344,14.166666666666666
107488.39727895705,3.3999999999999999,145.57988253416877,15.333333333333334
105681.67150973491,0.066666666666666666,291.92726601224842,15.633333333333333
64603.107042913878,0.76666666666666672,214.20384799763309,12.733333333333333
53234.077508159186,1.4666666666666666,110.46171728914891,8.6999999999999993
73785.896310319265,2.1333333333333333,161.39494070977938,12.333333333333334
63395.59348784927,4.166666666666667,153.43266723941548,13.333333333333334
123356.85118919694,2.2666666666666666,225.92190162972321,16.766666666666666
91108.392846648392,0.56666666666666665,310.89819529847267,17.266666666666666
80914.616894154242,3.5,206.9370840505434,16.0
70472.428193594053,2.2333333333333334,146.27541933066581,12.166666666666666
81745.390734968751,0.066666666666666666,237.97851566105186,12.666666666666666
62210.630824697859,0.53333333333333333,199.97625520171448,11.433333333333334
46845.863032645691,0.76666666666666672,88.74835234451271,6.5999999999999996
46728.552669646968,1.9666666666666666,116.3192820905923,8.9666666666666668
68903.747374348677,1.2666666666666666,120.39309211265073,9.5999999999999996
86379.556903908029,0.13333333333333333,192.1266729752991,11.766666666666667
63501.223427810626,0.066666666666666666,212.42303923795217,11.066666666666666
39528.88459355331,0.93333333333333335,129.29189291476465,8.8000000000000007
41662.54470900444,3.1000000000000001,93.873284236780549,8.7666666666666675
63458.841673297298,1.5666666666666667,124.85813342036427,9.3666666666666671
66607.929107902746,0.69999999999999996,171.55174061485411,10.733333333333333
88341.819074284853,1.1000000000000001,177.5660340395853,12.300000000000001
71990.736559039418,0.69999999999999996,202.74607397489274,12.1
72983.45039973958,1.1666666666666667,170.19176630129184,12.466666666666667
76404.344376548994,1.2666666666666666,172.15705190024167,11.766666666666667
87992.749387204749,0.59999999999999998,209.84414864402603,13.0
88996.634385697384,0.76666666666666672,236.0546290157298,14.333333333333334
85073.771638538819,3.2000000000000002,214.41579474200063,16.333333333333332
142284.32909585963,2.5333333333333332,268.10376855149514,20.0
130192.49485679339,0.53333333333333333,362.39718134768316,20.633333333333333
79852.180356750119,0.36666666666666664,294.50623102254156,16.0
40493.266600359915,1.9666666666666666,135.63720823996562,9.5999999999999996
74107.268318997303,2.1666666666666665,143.123498291978,10.666666666666666
92763.720967472269,0.80000000000000004,203.76056855735027,13.0
99945.766052191611,1.0,232.91152612048307,14.966666666666667
67886.220632086028,1.9333333333333333,224.06094331991432,14.533333333333333
56440.261182960188,4.166666666666667,149.45367438135315,12.933333333333334
90237.124360770511,2.2000000000000002,141.7437663776328,12.699999999999999
90854.695864523732,0.73333333333333328,239.03826228586712,14.333333333333334
83601.95845414752,0.33333333333333331,241.32990927614497,13.4
55457.103799620287,1.0,144.95029185266068,10.199999999999999
93061.733904735884,1.3333333333333333,171.9726430690306,12.666666666666666
82474.478003558499,0.33333333333333331,238.86605582570911,13.800000000000001
80943.269633616874,1.4666666666666666,230.75971336272161,14.300000000000001
69742.814454751642,2.6666666666666665,185.86292017244418,13.733333333333333
101046.66576231134,2.0,184.32018242972219,14.300000000000001
87747.037113290062,1.2333333333333334,259.47657756650807,15.5
109296.65201368452,0.93333333333333335,245.84206221836314,15.6
115478.11804039852,0.23333333333333334,295.4286944778043,17.033333333333335
113264.96605230619,0.23333333333333334,283.92676837876371,16.800000000000001
66825.322640831291,1.7,245.76855494058057,15.666666666666666
65374.577642413751,4.0333333333333332,191.69324430085737,14.300000000000001
62132.350482509508,1.8,112.51793966437108,9.8333333333333339
60063.165877139923,1.9666666666666666,160.07586715992784,10.766666666666667
68514.965426907685,0.80000000000000004,144.87522158521855,9.4000000000000004
40936.051540000015,0.59999999999999998,135.98745924256244,8.2333333333333325
37407.087107581669,0.80000000000000004,106.42507385823977,6.9000000000000004
23000.559049277399,1.9333333333333333,53.874936752648559,5.5666666666666664
43070.264224468388,1.1666666666666667,70.744018507829352,5.7666666666666666
57208.06831825892,0.10000000000000001,143.85051504168896,8.1333333333333329
65350.018032668893,0.40000000000000002,159.48236305917365,9.9333333333333336
64855.724327665703,1.2,160.2020115729878,10.6
65514.828256371919,1.4666666666666666,161.00173078133994,11.333333333333334
75314.088445991336,2.7999999999999998,188.97303974487795,13.9
113800.31433750571,1.8666666666666667,216.92875884195621,16.100000000000001
154748.30561079329,1.3333333333333333,318.2746448619734,21.233333333333334
135410.97236677929,1.3333333333333333,356.85831059601588,22.800000000000001
148552.93024939261,2.3333333333333335,325.56726296900342,22.866666666666667
93940.549784452451,2.3333333333333335,330.56772675961952,19.633333333333333
86364.669591151091,1.9333333333333333,201.24916695376666,15.133333333333333
59296.179916316403,3.1000000000000001,181.54949253699061,12.9
43444.679405459086,4.2333333333333334,120.04719650036674,11.233333333333333
78690.437211374796,2.7666666666666666,129.3005092492354,12.066666666666666
93480.757174421276,0.83333333333333337,235.02573434576695,14.366666666666667
107487.43144796556,0.73333333333333328,241.61176946330988,15.800000000000001
121840.01532615589,0.93333333333333335,273.28164739451438,17.133333333333333
127259.26364002492,0.73333333333333328,289.83163913935499,18.933333333333334
108579.70264988476,0.80000000000000004,341.10568397106761,19.433333333333334
88969.190609101366,0.76666666666666672,213.41955837327319,14.0
77241.988309910594,0.73333333333333328,203.66224030017673,12.300000000000001
81936.200914823712,0.53333333333333333,185.20602895241561,11.366666666666667
76473.938475941351,0.033333333333333333,191.25606317163766,11.333333333333334
68481.696982038629,0.83333333333333337,197.28133055165986,12.300000000000001
97018.394782297823,1.4333333333333333,193.50111490336255,13.533333333333333
79826.869296701683,0.90000000000000002,219.24006979111618,13.4
89583.775208984196,1.4333333333333333,180.84156572446372,13.866666666666667
94288.941336241594,1.0666666666666667,228.55140672925106,14.300000000000001
87121.821439183506,0.53333333333333333,225.92115780565578,13.766666666666667
96751.790013842779,0.46666666666666667,223.66262000539265,13.300000000000001
96779.681540273465,0.26666666666666666,256.02512603044755,14.9
79759.304688788485,1.8,239.01701592384879,15.300000000000001
76096.154077446496,5.0999999999999996,183.82778257707923,16.5
97060.443693430076,3.1333333333333333,182.22214198911399,16.100000000000001
126079.32211713077,0.90000000000000002,300.97019783234759,17.800000000000001
70548.539370945728,0.83333333333333337,220.20196520192914,13.133333333333333
56295.792506806894,1.8333333333333333,132.81741628612616,9.5
70035.095777298353,0.83333333333333337,151.52944181321681,9.9333333333333336
82740.061976828874,0.96666666666666667,162.09852134376544,11.533333333333333
68422.234377465706,1.0,192.73151638468926,12.6
48445.060437612156,2.8666666666666667,164.11571248073034,12.066666666666666
55576.375988133324,5.0666666666666664,127.2484844652918,13.033333333333333
109293.08141766507,2.6666666666666665,186.81351857607424,15.366666666666667
122159.00248897795,1.6666666666666667,296.05151658368789,19.966666666666665
97977.600957016184,5.7666666666666666,280.97229147988457,21.399999999999999
137942.09751075105,4.3666666666666663,269.02619921675745,22.733333333333334
147537.27414896435,2.8999999999999999,359.4684747670841,24.733333333333334
84528.439053774171,5.666666666666667,280.21499404434269,22.066666666666666
65565.574785283912,9.1666666666666661,163.26059309374452,18.533333333333335
75883.101479446617,10.333333333333334,166.02534359031353,20.399999999999999
124712.45377875418,5.7333333333333334,211.90742723002757,21.666666666666668
127018.04827177401,3.0333333333333332,331.38021476535749,22.133333333333333
90585.590399537658,5.9666666666666668,264.31268544247291,20.233333333333334
77665.223286328997,2.4333333333333331,137.34772020965505,12.199999999999999
113373.67452125708,0.36666666666666664,246.89344090024304,15.1
106456.57867076869,0.13333333333333333,286.12256641754863,16.199999999999999
63036.178644367821,0.66666666666666663,191.43203726436468,11.633333333333333
61135.597795868918,0.90000000000000002,183.46576053740282,11.666666666666666
30008.962778089313,2.0333333333333332,115.56309444639032,8.2333333333333325
57895.300773743431,2.1000000000000001,94.471430379904987,8.0333333333333332
79559.72737572882,1.0,165.78155241660244,11.466666666666667
40437.373815457402,3.6000000000000001,150.98163269367734,12.366666666666667
100728.16194372231,3.0666666666666669,136.22048269625478,13.733333333333333
121075.09954465594,0.6333333333333333,292.60580862657844,17.233333333333334
90017.478413748249,0.76666666666666672,267.05992215735671,15.733333333333333
74746.90567947751,1.7666666666666666,167.27999995167622,12.833333333333334
69616.371119823991,1.0333333333333334,174.74813199217877,11.4
52798.600234872189,0.46666666666666667,151.79802589036879,8.8666666666666671
43168.591549102268,0.0,128.31992943654916,6.7999999999999998
27765.903325571122,0.53333333333333333,73.192661182819208,5.2666666666666666
63279.191382618723,0.90000000000000002,109.40877129971827,7.9000000000000004
54253.778429377708,0.76666666666666672,161.03701500503112,10.0
44265.219133499631,2.8333333333333335,127.55006712362723,10.066666666666666
103238.65022817756,4.2999999999999998,192.54620294186554,16.600000000000001
126627.88990374925,2.3666666666666667,267.85231798556885,18.866666666666667
140384.29341107415,3.9666666666666668,358.90714836844381,25.733333333333334
116748.52152314669,7.0333333333333332,353.98766330885604,26.766666666666666
117379.05220360446,5.4333333333333336,228.29086961714228,23.199999999999999
165975.39235415673,4.2333333333333334,391.18840323656747,26.033333333333335
83688.866622792892,5.0333333333333332,307.6187403441715,21.166666666666668
101845.87469042385,4.0333333333333332,128.09338447709868,15.1
93051.881472790192,2.0666666666666669,285.16263880383627,17.166666666666668
119333.27135054483,1.5,222.16656423185503,16.566666666666666
92679.093402789586,1.0333333333333334,278.04725930007595,15.6
65370.784463689568,1.5333333333333334,209.50084953792006,13.833333333333334
104479.73136037761,1.2333333333333334,198.83166682148624,13.433333333333334
100695.58726934336,0.33333333333333331,250.52468172451088,15.0
58423.970354647485,2.8333333333333335,190.62727952421332,13.866666666666667
82285.874573140492,2.7999999999999998,143.91677949686672,13.4
84466.013151121922,3.0333333333333332,227.71972724470899,16.333333333333332
81287.289875515664,2.3999999999999999,178.68919292614024,14.033333333333333
78075.659753115091,3.2666666666666666,206.4488504840709,14.933333333333334
89448.936803960329,1.7666666666666666,193.78699132651985,14.033333333333333
106485.08851185157,0.96666666666666667,231.4305664840409,14.933333333333334
59977.834989851843,0.83333333333333337,228.2510268758858,13.166666666666666
99329.246015593541,1.2333333333333334,172.42229427648178,13.366666666666667
96887.144055359124,0.46666666666666667,261.61744563294121,15.033333333333333
113529.33536804044,1.0333333333333334,244.70761984141262,16.399999999999999
74663.067768396329,2.6000000000000001,248.7169202913941,16.033333333333335
105962.30797217897,1.5666666666666667,209.51200539327311,15.466666666666667
95504.587033414442,1.8666666666666667,251.53378816459144,16.166666666666668
109780.1589856434,1.8333333333333333,230.98482440590575,16.233333333333334
82411.832536556918,1.3999999999999999,252.28759934248075,15.833333333333334
57218.619306165034,4.2333333333333334,172.49757715073622,15.199999999999999
115397.22535120267,2.9666666666666668,182.22123642535729,15.366666666666667
114810.70697143821,0.10000000000000001,324.32254632543078,17.433333333333334
75215.56258519461,0.56666666666666665,260.00260261458101,14.5
76639.00151690167,0.56666666666666665,163.7385375613116,10.6
69229.696265572566,0.066666666666666666,186.19316557265992,10.666666666666666
39632.691494794199,1.0333333333333334,131.35967064093836,8.4333333333333336
67013.950425727395,1.2666666666666666,129.82865501365674,9.4666666666666668
58958.868234311092,0.73333333333333328,159.98607606488409,10.033333333333333
79824.095762703655,0.93333333333333335,168.68724477012833,11.066666666666666
94155.280931628717,0.53333333333333333,223.36055323400709,13.633333333333333
65941.474488902808,1.3,194.13726869554003,12.533333333333333
59003.734187447328,2.3666666666666667,171.82327587181777,12.033333333333333
56931.479570798925,4.0,151.75505566321121,12.833333333333334
87077.578381699263,2.9666666666666668,137.04731399852341,13.133333333333333
96439.917146892476,1.6333333333333333,243.66166355480755,15.6
98140.251315910151,1.0666666666666667,229.74065242822536,15.4
104310.51545726134,1.3333333333333333,239.46492856254551,15.6
81138.178238178138,2.3999999999999999,237.68623552117631,16.0
112077.03782396064,2.1666666666666665,207.69388534249831,16.699999999999999
138097.83670471405,1.3333333333333333,317.96927548087064,19.866666666666667
82297.899111814142,0.69999999999999996,284.95436370216976,16.399999999999999
91896.270146805633,1.5666666666666667,204.02184451804135,14.233333333333333
80466.260164215404,0.83333333333333337,210.14066563119442,12.766666666666667
45580.44263318021,1.5666666666666667,159.65554496821534,10.566666666666666
77656.893849141401,1.0,157.6277161289425,10.533333333333333
49710.97775959735,0.033333333333333333,158.93897850084508,8.9666666666666668
31267.829472709513,1.0333333333333334,80.044026129136739,6.0333333333333332
47761.106873194294,0.53333333333333333,94.190010517829904,6.333333333333333
61922.803321023355,0.066666666666666666,145.30927586325049,8.1999999999999993
63717.216632583251,0.66666666666666663,146.27743213562457,9.8000000000000007
78205.983986144565,1.4666666666666666,176.02152892104655,12.199999999999999
48730.59985479938,2.3666666666666667,174.75851099959084,12.266666666666667
27110.08323974572,5.166666666666667,81.25054554895479,10.233333333333333
82371.734144671151,2.5666666666666669,107.07725398844873,10.633333333333333
107305.54625295638,0.36666666666666664,278.41096860664743,15.966666666666667
84333.580212506145,1.1333333333333333,236.28902967632786,14.933333333333334
113161.88882339295,1.4666666666666666,224.22913213649554,16.033333333333335
89243.90413423517,3.0333333333333332,255.9945786730423,17.633333333333333
68793.990996731503,5.7000000000000002,197.79908837284432,17.5
98925.319773716328,4.2333333333333334,203.31139682721005,18.166666666666668
92693.344042001772,3.3999999999999999,280.70918641289256,18.399999999999999
97087.401697354377,1.8666666666666667,222.40276879802948,15.466666666666667
60805.477291818162,2.1000000000000001,190.76448603411603,12.333333333333334
79205.312128706806,1.5,158.45240636968992,11.9
90922.20649128579,1.6000000000000001,183.12640756305029,13.533333333333333
112649.81211796934,2.2333333333333334,277.04833761207948,18.100000000000001
122288.40761929606,1.2333333333333334,287.35563851777505,18.5
98290.747308202161,1.3666666666666667,279.2269102372523,17.699999999999999
83112.39143577138,3.2333333333333334,228.54939448965845,16.166666666666668
113170.37014118476,1.2333333333333334,254.52547319112455,15.566666666666666
105473.63848628699,0.59999999999999998,269.28370457610657,16.966666666666665
119288.47378432454,1.1666666666666667,293.20555138204543,17.866666666666667
95943.215062450545,0.53333333333333333,259.11544870943078,15.699999999999999
72192.054516497781,1.9666666666666666,203.95256977790504,13.800000000000001
83075.735346638583,3.1000000000000001,200.44236524899767,14.766666666666667
115389.44264058862,1.5666666666666667,224.3125898599464,15.966666666666667
84223.475290885792,2.2333333333333334,273.25219710259069,17.666666666666668
68129.786304006804,4.5,213.4826336159669,15.966666666666667
