co2,numWaiting
7266.5858152545616,0.033333333333333333
5636.2480316316478,0.033333333333333333
30209.688073053188,0.066666666666666666
17970.847295676947,0.20000000000000001
41066.246407620121,1.3666666666666667
46629.232973866019,0.69999999999999996
43960.633337711224,1.8666666666666667
37532.345069489078,4.0666666666666664
43523.832611761958,6.0
60190.593912263408,5.9666666666666668
54313.007205621689,7.1333333333333337
79632.166391127001,6.0999999999999996
56737.382813715325,9.4666666666666668
28275.190825967402,12.033333333333333
34804.042247262572,12.033333333333333
48005.333968312239,11.366666666666667
42866.553644933789,10.066666666666666
43376.664599381125,12.133333333333333
32426.434614043505,12.633333333333333
58177.307479267336,13.199999999999999
68386.931995651306,13.333333333333334
61982.379342100714,13.066666666666666
81595.297311959337,14.133333333333333
46941.13491449556,15.933333333333334
28633.996488285466,16.766666666666666
15797.593908091332,18.0
33842.142283602356,18.033333333333335
33591.842799896585,19.0
46925.147370268678,19.833333333333332
53517.050378274922,20.833333333333332
60364.934834123938,19.199999999999999
81062.841622529697,12.800000000000001
142094.84308415619,11.966666666666667
77403.316245158538,15.1
44084.716390781723,15.933333333333334
45105.168594207877,19.133333333333333
51957.142791787614,20.166666666666668
57590.479573754637,20.899999999999999
51407.057864410155,23.733333333333334
43739.676172013314,24.800000000000001
60845.179111597638,26.033333333333335
37686.272294264163,27.033333333333335
44767.438512112858,27.266666666666666
33773.228591296262,28.333333333333332
45514.148853345738,29.033333333333335
50596.53334380695,29.233333333333334
45904.095676282683,30.166666666666668
81813.986142602706,24.766666666666666
47595.916168284879,30.166666666666668
107229.95896292735,25.899999999999999
77483.468030544245,28.800000000000001
60782.158735330631,21.966666666666665
49106.6705723173,18.833333333333332
26718.027175348532,29.566666666666666
51231.657192548599,31.233333333333334
35515.214882545537,32.100000000000001
45248.302934279222,33.466666666666669
51698.057327887691,34.100000000000001
74831.325408378019,34.233333333333334
96462.884790607961,35.233333333333334
55594.242119733855,39.93333333333333
81571.010098216764,43.06666666666667
38863.439527132752,44.866666666666667
44449.218027199116,47.100000000000001
53602.996560728599,47.0
41411.890778513189,48.700000000000003
68650.720153169386,50.100000000000001
51116.191818282816,52.06666666666667
45299.868717957906,54.56666666666667
63415.295979257702,53.466666666666669
86640.515373321512,51.700000000000003
74737.318393572874,55.466666666666669
80180.775824813201,44.93333333333333
121335.6026062226,28.166666666666668
138589.96712212227,25.066666666666666
84717.32386799404,38.866666666666667
62102.238574735798,49.633333333333333
45144.584693959478,55.966666666666669
70886.231448125007,55.299999999999997
67116.785066930082,46.866666666666667
88867.140469762759,40.299999999999997
53531.915491489795,46.666666666666664
54400.037374466287,59.266666666666666
42201.308602188699,65.599999999999994
67658.465656331449,67.099999999999994
78810.98574516509,67.766666666666666
75079.095780347066,69.233333333333334
70294.078014314044,72.63333333333334
71003.565012980645,73.333333333333329
61666.670888045235,75.5
71435.893977337837,68.033333333333331
66793.255509926108,74.333333333333329
69629.958644430531,77.066666666666663
109815.30329065163,69.63333333333334
76577.71926789885,77.5
79876.629119371835,64.099999999999994
90517.560296231415,61.5
69778.776786368078,67.099999999999994
53814.440178720746,69.333333333333329
54042.791268733286,80.299999999999997
62907.816397184411,88.86666666666666
66115.318779881156,89.099999999999994
85779.884156476139,90.299999999999997
66228.396152764923,93.700000000000003
56802.914241852523,95.566666666666663
60940.533660989844,96.066666666666663
84464.548958706204,95.13333333333334
96681.470079085833,93.433333333333337
95765.26515936981,96.166666666666671
97987.920861286606,97.86666666666666
81434.56499383456,100.93333333333334
86813.769334905694,104.86666666666666
74786.473706055112,108.93333333333334
85488.303609727285,107.16666666666667
81276.81673017444,101.63333333333334
79299.760884126677,101.0
75978.615669131046,102.13333333333334
88743.568528825184,99.299999999999997
77785.990798978542,93.700000000000003
87317.335481831862,89.566666666666663
74635.071567096107,99.766666666666666
76881.750214217376,112.93333333333334
54395.770942917494,122.93333333333334
58925.779404448949,124.0
81710.747191461123,122.8
101065.19446454408,110.06666666666666
80643.82003581863,105.46666666666667
94846.054008135237,96.833333333333329
88381.178291611548,92.200000000000003
106299.3556191375,83.466666666666669
153750.61886396134,89.200000000000003
