{
  "config": {
    "agent": "Q", 
    "alpha": 0.08566982674680589, 
    "batch_size": 4, 
    "epsilon": 0.7515904365940231, 
    "epsilon_half_life": 481.786593810358, 
    "eta0": 1.4715103634222203e-05, 
    "gamma": 0.9373831480372556, 
    "gui": false, 
    "learning_rate": "optimal", 
    "maxIter": 500, 
    "scenario": "std_four_way", 
    "stepLength": 20
  }, 
  "stats": {
    "co2": 114750.08671028519, 
    "co2_std": 71793.897080636656, 
    "distanceTraveled": 203.11635265463207, 
    "distanceTraveled_std": 172.66994440408351, 
    "numVehicles": 64.085166666666638, 
    "numVehicles_std": 32.423148057710591, 
    "numWaiting": 45.94441666666669, 
    "numWaiting_std": 30.030340006562074
  }
}