{
  "config": {
    "agent": "Q", 
    "alpha": 0.49478047721920515, 
    "batch_size": 16, 
    "epsilon": 0.7396717302667337, 
    "epsilon_half_life": 122.4961280812101, 
    "eta0": 5.26522288446213e-05, 
    "gamma": 0.8483720699583186, 
    "gui": false, 
    "learning_rate": "invscaling", 
    "lqfProb": 0.30315214185949513, 
    "maxIter": 500, 
    "maxMinutes": 20.0, 
    "scenario": "two_by_two_3lane"
  }, 
  "stats": {
    "co2": 305774.86877764284, 
    "co2_std": 56046.48770519661, 
    "distanceTraveled": 537.43352248786118, 
    "distanceTraveled_std": 122.94495356170911, 
    "numVehicles": 182.93577777777779, 
    "numVehicles_std": 29.330010821092994, 
    "numWaiting": 135.03700000000001, 
    "numWaiting_std": 33.52599485473921
  }
}