co2,numWaiting,distanceTraveled,numVehicles
22064.42016889865,0.20000000000000001,21.815515837365655,2.6666666666666665
70936.076657648751,0.23333333333333334,135.55191820235521,9.3000000000000007
121665.65214097648,0.96666666666666667,222.96349359813726,17.933333333333334
202601.15894071638,2.3333333333333335,408.82780051107778,31.0
175335.52601255677,3.6000000000000001,457.09417883783851,36.966666666666669
204704.63696742847,4.5999999999999996,425.2838366303244,39.133333333333333
297562.17658856761,3.7999999999999998,559.47990778721714,44.799999999999997
190412.5186644163,5.4333333333333336,590.05725681664114,42.333333333333336
219068.01942401769,5.5999999999999996,394.38363632237764,36.06666666666667
203495.13773416879,4.5666666666666664,525.02600861488793,38.966666666666669
213061.75065291539,4.4333333333333336,473.59344211261066,36.966666666666669
217574.96205587991,3.4666666666666668,466.97859893047155,36.56666666666667
229908.02342828349,3.6333333333333333,489.5734086412034,39.533333333333331
294125.32926203619,2.7999999999999998,595.00620862984442,44.733333333333334
252805.28934081955,3.7333333333333334,641.65090963059799,48.133333333333333
251588.34163623079,5.5666666666666664,536.52119666239696,45.866666666666667
248901.82582076528,5.9000000000000004,528.54305355589236,45.733333333333334
309714.64030764572,3.8666666666666667,610.5179381231228,47.56666666666667
235245.36215346845,3.0333333333333332,603.66740025601757,43.633333333333333
218376.82258319782,7.0999999999999996,480.74183737251008,40.866666666666667
239306.39323356689,5.1333333333333337,514.75203301703436,40.93333333333333
175169.27734142027,5.7000000000000002,420.75437271616676,39.56666666666667
197017.77267730914,10.366666666666667,435.19556655018789,40.5
211271.15607099383,6.9666666666666668,401.7617691768636,38.366666666666667
245705.80359748271,3.6666666666666665,533.4195794413306,42.466666666666669
269415.70972433977,4.7999999999999998,593.40009674490409,46.366666666666667
238644.4723218992,4.5333333333333332,588.66562578159767,46.633333333333333
205336.84940151643,7.5333333333333332,444.56173481725193,42.399999999999999
260041.76582980284,6.7000000000000002,478.71311067791146,43.533333333333331
260761.36419997617,3.3333333333333335,589.41187215985133,44.033333333333331
246445.1979522389,4.666666666666667,516.06498688705665,42.666666666666664
234574.33009345963,3.0333333333333332,542.82474437209601,42.100000000000001
287341.12298529461,4.7666666666666666,611.00760814561477,47.200000000000003
223004.24164593653,3.7333333333333334,583.17497714243268,42.600000000000001
231935.70579349791,4.7999999999999998,471.88984905486302,40.06666666666667
199987.04617175125,8.0999999999999996,476.8823260080643,40.56666666666667
219890.84701042046,5.5,474.2513986643948,40.700000000000003
261936.27872120819,4.2333333333333334,534.45835887784801,43.5
261710.0697474998,5.4333333333333336,587.72867859263147,45.366666666666667
263742.97979574808,5.8666666666666663,604.34502091463924,49.299999999999997
314074.24538894556,5.7999999999999998,663.96039207359411,53.966666666666669
297503.22297481011,4.4000000000000004,628.18999087915734,55.166666666666664
308360.87748018414,11.5,715.45313463200853,59.333333333333336
257023.62397390793,15.066666666666666,634.17255168785516,58.06666666666667
274542.7415753401,8.3333333333333339,602.50266448088473,54.966666666666669
276441.29014566191,7.5666666666666664,583.56663887045681,53.766666666666666
351499.64886083896,6.7333333333333334,706.80548145612397,58.233333333333334
291328.66175063053,5.333333333333333,767.66671242444602,54.899999999999999
260443.37424214045,8.6666666666666661,567.39327661525442,53.233333333333334
259337.3385933261,6.2999999999999998,599.01333985269673,50.299999999999997
342067.94051131664,3.6000000000000001,674.44981097126629,51.299999999999997
274881.81968773936,3.1333333333333333,663.28591467422712,48.299999999999997
244605.8277361762,2.5666666666666669,571.59520228371423,43.93333333333333
272854.12469497521,4.0999999999999996,558.17499468522385,45.100000000000001
224151.56764025663,4.2666666666666666,555.25002773145854,43.866666666666667
211625.85290875135,5.0999999999999996,424.67002718537157,39.533333333333331
264001.00816313655,3.6666666666666665,570.92002371180718,41.799999999999997
210332.88212751897,4.166666666666667,554.39263534565612,40.766666666666666
220968.98727868724,4.2000000000000002,469.23656555488543,37.56666666666667
209429.01238261032,2.0333333333333332,546.52339329120707,36.799999999999997
216725.91805567686,3.9333333333333331,529.95219913036806,38.06666666666667
151781.98393303916,3.7666666666666666,366.3522496166143,30.933333333333334
206698.50524939148,3.7999999999999998,425.74546256630668,34.033333333333331
206899.85332948621,4.6333333333333337,495.52481753239698,37.600000000000001
248518.63289030336,3.9666666666666668,493.10524342100717,40.200000000000003
274882.46125576383,3.7333333333333334,586.25989424433442,46.166666666666664
257462.41291213717,5.2000000000000002,658.14837933121441,48.033333333333331
217882.29737828305,6.5333333333333332,474.96171285454778,43.766666666666666
230287.55574571929,7.1333333333333337,537.438217345015,44.033333333333331
209882.76875842255,4.9666666666666668,476.88424771585392,40.133333333333333
255604.22596546833,5.7000000000000002,507.62138164342639,40.600000000000001
250050.57994193223,5.2333333333333334,595.0594430755433,46.700000000000003
255587.04585484153,4.4000000000000004,610.35723469001084,44.366666666666667
217375.19756198156,5.5,532.51397979903629,44.333333333333336
246213.0751878421,5.7666666666666666,545.09794624778044,43.166666666666664
243293.20117285184,4.2000000000000002,518.32555545601826,43.700000000000003
303359.44632700679,3.3333333333333335,656.29091864268003,48.233333333333334
252154.67024082824,4.7000000000000002,668.51507859772698,47.200000000000003
235437.3515763765,5.4666666666666668,508.38372214685518,43.299999999999997
273403.98039728944,5.333333333333333,558.79750327535817,45.93333333333333
293302.86718842492,3.8999999999999999,635.35689961588389,49.133333333333333
276936.00607120042,5.0,663.16261123494212,50.5
276457.68571222993,3.6000000000000001,650.02465732453732,49.966666666666669
305900.40273241041,4.2999999999999998,655.90383297705557,51.366666666666667
291713.81163527688,6.7999999999999998,626.22619114465488,52.5
288574.86995696119,8.3333333333333339,684.70634069348648,56.966666666666669
273184.07901860966,5.7000000000000002,698.43246764628248,52.166666666666664
262243.66962714825,6.0,531.74949034153929,46.833333333333336
236159.24166990738,5.4333333333333336,574.85222424158462,42.899999999999999
140559.26486824054,7.666666666666667,425.766393975543,33.799999999999997
193087.72881452471,4.5999999999999996,390.61927554695404,32.06666666666667
191816.2851676782,2.0333333333333332,438.41328311623312,32.266666666666666
172686.28033391904,4.9333333333333336,408.80261559328386,33.93333333333333
255812.84073562047,4.4000000000000004,510.78448031120445,41.033333333333331
237489.02197450324,3.3999999999999999,623.05711839884816,44.633333333333333
232273.91796528318,4.833333333333333,484.67820025244851,43.43333333333333
244687.23600054774,3.5666666666666669,544.73372493625834,42.366666666666667
246979.69177889719,4.4333333333333336,526.59248276759331,42.799999999999997
190670.18205947214,6.5666666666666664,506.51471767633251,39.100000000000001
179630.04308442294,4.0,393.24267383428452,32.233333333333334
194565.93676910308,2.7999999999999998,387.94153702220677,31.633333333333333
195923.57485060056,4.2666666666666666,429.70418217502646,33.966666666666669
216927.12928930297,2.9333333333333331,514.39174670001046,36.366666666666667
173635.13113837145,3.2000000000000002,460.40253992691311,34.56666666666667
224019.06283748435,2.5666666666666669,451.59627586397448,34.43333333333333
186742.24937059518,1.2,468.82040493889934,33.5
175085.27290547444,4.9666666666666668,430.46713329352627,32.600000000000001
155943.21343215086,4.4333333333333336,332.6589066086616,30.766666666666666
238045.25241563594,3.1333333333333333,462.3402140706923,36.366666666666667
231040.13390035013,4.5,555.50301774850027,41.06666666666667
232965.25244551542,2.4333333333333331,478.1611267701507,38.533333333333331
232556.50189514458,4.4333333333333336,522.49132247309331,42.200000000000003
255142.9196576651,5.1333333333333337,574.03144148244496,45.200000000000003
243504.80645692776,3.7333333333333334,551.1792012766698,42.700000000000003
252337.96830534696,2.9333333333333331,519.93485221756987,41.56666666666667
242071.9773096143,2.4333333333333331,571.33754777177842,41.233333333333334
212816.32742761678,2.6333333333333333,457.77065120780912,35.966666666666669
270236.29074988689,2.9666666666666668,574.04571723140737,42.0
210092.65139301695,3.5,578.33360632368738,40.966666666666669
193685.15655918102,7.9000000000000004,457.60428281391819,42.93333333333333
316669.24764512311,5.4666666666666668,603.26611483963245,51.06666666666667
277427.86775081174,5.166666666666667,692.43190472531819,52.866666666666667
280596.80821348081,7.666666666666667,603.35343950434333,51.56666666666667
252462.57800782321,4.166666666666667,623.97137702854184,46.5
258271.33278774822,3.4333333333333331,539.12789872373025,40.533333333333331
199291.9968754953,3.8999999999999999,499.117087041682,37.299999999999997
177115.3922390466,3.6666666666666665,351.0369287858835,32.299999999999997
202801.38200653583,4.8666666666666663,464.2266675370883,36.033333333333331
215968.16294459859,5.5333333333333332,482.69420382060724,38.966666666666669
196857.22641212426,4.6333333333333337,458.50154384446466,38.5
217601.67804010247,3.4666666666666668,432.46783626241995,37.766666666666666
218994.67248854102,3.8999999999999999,459.69647606278954,36.366666666666667
183713.3372211387,3.5,397.20418562879627,33.666666666666664
274091.06576927943,3.6000000000000001,518.36655532233169,39.766666666666666
245353.75035914031,2.9666666666666668,613.49919790956642,45.333333333333336
270014.7932024296,7.7333333333333334,602.33012522811055,50.5
246148.56015941023,6.333333333333333,561.1615774743226,49.966666666666669
313957.43033049855,6.5666666666666664,627.35944309729939,52.0
291711.94824015559,3.7666666666666666,675.61184742056719,50.633333333333333
287611.24931370723,4.666666666666667,627.27000115703345,49.333333333333336
267810.17321609863,4.9666666666666668,633.09394437991693,48.06666666666667
254961.26233389025,5.5,586.92372500514705,47.5
214637.38655109785,4.9333333333333336,496.2224287041517,41.033333333333331
202851.98142804598,6.0666666666666664,426.88893760440976,37.100000000000001
175743.21887716991,5.5333333333333332,393.01498831458258,34.100000000000001
227896.81581937859,3.0,473.12628786432134,36.633333333333333
221491.02610881734,3.1666666666666665,524.5049759713994,38.899999999999999
199671.57010171702,4.4666666666666668,481.88994349448774,39.133333333333333
269926.04283395683,3.5666666666666669,566.6949880084685,43.100000000000001
260203.9763069459,4.8666666666666663,646.03566776757827,46.600000000000001
207377.90359792529,6.2999999999999998,516.45860481191244,43.100000000000001
301007.62794035691,6.0666666666666664,525.56527256044274,48.266666666666666
359549.61641356681,2.9333333333333331,780.30820768326953,57.766666666666666
318184.96391371259,4.2999999999999998,777.57702955728064,59.93333333333333
298020.50200441194,4.7333333333333334,689.63658102692216,55.43333333333333
280428.37624154036,5.7333333333333334,638.76008818907962,52.06666666666667
312770.88561941398,4.5666666666666664,601.50052406114401,49.399999999999999
233221.09827935504,5.7000000000000002,610.43568353794524,45.299999999999997
203302.49022264627,4.4666666666666668,475.53415497208857,39.100000000000001
230336.53226180098,3.0666666666666669,466.35590825129259,35.533333333333331
190319.12839771778,2.2999999999999998,462.04163768065428,33.633333333333333
162392.93520946612,6.2666666666666666,396.45003758937361,32.533333333333331
178909.78410099194,3.7999999999999998,373.59399196912034,31.366666666666667
215992.04840133325,2.4333333333333331,471.68488728573504,34.93333333333333
201132.75651270297,6.833333333333333,482.99402814509472,38.93333333333333
239480.01222541291,4.8666666666666663,538.91517938801314,42.166666666666664
249544.61954516079,4.666666666666667,554.04248236168633,44.399999999999999
261265.7235819874,2.2000000000000002,607.04798165043155,47.233333333333334
298653.4555333312,4.0999999999999996,625.37318043851405,48.966666666666669
232440.21206997268,8.4333333333333336,613.98602343002131,47.700000000000003
248206.20519788086,5.4333333333333336,526.615848312352,44.366666666666667
256908.07591314858,3.8333333333333335,590.14606544228423,44.966666666666669
254272.70580934256,4.7666666666666666,548.51531555025235,44.799999999999997
280895.23644105141,4.666666666666667,569.08007956581662,46.366666666666667
247177.08014800996,5.2333333333333334,636.94626454745662,47.5
249374.22044120656,6.4666666666666668,518.24877145664016,43.299999999999997
251750.87266571927,4.333333333333333,571.66741731283048,45.200000000000003
234689.49706659149,4.2000000000000002,502.5013850105974,42.43333333333333
237713.11831817558,1.6666666666666667,592.51428730881025,38.733333333333334
168933.99373506309,2.6666666666666665,383.2364838398114,29.933333333333334
171452.90243248272,2.9333333333333331,378.20084121432393,29.333333333333332
198171.8606081758,4.2999999999999998,423.91629309619117,33.366666666666667
171638.32272640441,4.833333333333333,406.42579034959113,35.399999999999999
258577.13806442224,4.4000000000000004,508.85036530693378,42.399999999999999
265805.84934672259,6.0,580.46558291383246,47.166666666666664
292979.90435684257,7.0666666666666664,636.11621203928598,53.299999999999997
248002.0231515468,6.666666666666667,619.90294087527252,52.06666666666667
279668.5135896515,7.4666666666666668,544.55214593533015,52.399999999999999
350925.05817876093,3.1000000000000001,763.26503926154589,55.93333333333333
315689.07109427935,3.8333333333333335,722.31664174855484,53.899999999999999
242997.10009050064,5.7333333333333334,622.10640100691796,47.399999999999999
177184.00867901425,11.800000000000001,478.82202773258513,43.466666666666669
236149.1521648982,7.2333333333333334,437.64165480807304,39.533333333333331
234210.49527114295,3.9666666666666668,527.29232814246654,40.799999999999997
181485.09329665071,3.2000000000000002,513.43122454360434,36.5
204843.40629169208,1.3333333333333333,456.18360392916981,31.5
172575.92516281904,2.2333333333333334,397.97846997258165,30.266666666666666
185000.05909290304,4.3666666666666663,401.15107233205714,31.833333333333332
224234.92579660163,3.8999999999999999,452.91187815868489,38.200000000000003
210657.6011752261,5.333333333333333,525.07951401188927,40.899999999999999
249276.6312010519,5.9000000000000004,500.89926592877475,43.899999999999999
259280.47012666194,5.2000000000000002,549.79913203228034,46.866666666666667
261423.97956077047,7.2999999999999998,617.5384598730019,49.666666666666664
222698.07527125807,9.3666666666666671,547.41513270561154,48.266666666666666
232312.8747423249,7.5333333333333332,496.09030153333043,45.033333333333331
328258.37689214706,6.6333333333333337,672.96224262244368,51.333333333333336
254427.77839667015,3.7999999999999998,660.80029288665776,47.666666666666664
277450.54529538786,2.9666666666666668,567.93390873071178,44.93333333333333
226726.39075883571,3.2666666666666666,560.82786981353763,42.966666666666669
243815.51532124475,7.4000000000000004,504.06473332548791,44.399999999999999
214701.05841783324,7.9666666666666668,508.03693797037681,42.333333333333336
205459.1079824183,7.7666666666666666,460.57172100464743,42.0
182893.61228079099,7.7333333333333334,438.71605066746912,37.866666666666667
201841.14511498064,6.7666666666666666,373.47393242019001,36.56666666666667
219842.60533485375,3.2333333333333334,495.31198392877582,39.266666666666666
227924.37383208596,6.2333333333333334,541.55252468432104,41.5
237151.0992181758,5.4666666666666668,496.31454660241155,41.833333333333336
231098.29820463978,5.5333333333333332,537.87998888232573,46.399999999999999
266944.66487182485,5.0333333333333332,567.18779007126193,47.799999999999997
279880.6544696177,5.7666666666666666,573.01143931518527,49.666666666666664
231646.49250362441,10.300000000000001,535.67742136417439,48.899999999999999
222842.24013260921,8.3000000000000007,468.79343563215673,44.399999999999999
236612.17660519539,6.0666666666666664,529.43075047507432,42.333333333333336
236680.91262098131,5.0333333333333332,521.42237005208801,42.366666666666667
242259.89738267616,2.7999999999999998,575.66189658926999,41.06666666666667
230032.78779907199,3.3999999999999999,521.64948775429139,41.266666666666666
232538.67822052198,6.6333333333333337,555.34948734242118,44.56666666666667
271406.22419889609,4.7666666666666666,575.7395644837103,48.200000000000003
326840.82085331471,5.0666666666666664,740.07889644522618,55.700000000000003
297555.22778325697,4.333333333333333,713.55550423744432,56.033333333333331
288003.45117698144,5.4000000000000004,602.0777249333579,51.56666666666667
309321.66307521256,5.7666666666666666,650.01524116921735,53.200000000000003
252999.27704758206,3.6000000000000001,661.43336466652079,47.266666666666666
195144.64876302352,6.833333333333333,469.76792709221303,39.0
214018.36877671827,3.1666666666666665,449.72861317303369,35.233333333333334
180998.28274002633,1.0,430.67752023184909,32.666666666666664
176121.96786163893,4.0666666666666664,385.01835798462309,31.5
193284.31226090627,2.8333333333333335,443.12329075877483,33.166666666666664
189413.22291997113,3.7333333333333334,411.33105892619682,35.466666666666669
213369.70488873243,5.0,425.04408185348814,37.5
274428.48110356909,3.7333333333333334,558.13630292405878,45.133333333333333
252537.68719591203,4.0333333333333332,611.5356529414737,46.166666666666664
272604.31471844931,3.9666666666666668,548.867743472234,45.866666666666667
271210.60697599908,2.8999999999999999,645.0023858630741,46.233333333333334
261755.23961824572,2.2333333333333334,599.47565380844435,42.5
213109.48795105182,2.7666666666666666,535.95924534391429,37.733333333333334
189936.08452115252,4.5666666666666664,425.62335181098831,34.43333333333333
179821.30792004644,5.0999999999999996,425.18026662626687,35.299999999999997
210448.22598737499,3.7999999999999998,413.9727705338579,34.799999999999997
205565.80895718667,4.4333333333333336,464.43663564545443,36.833333333333336
218137.77063972707,3.5666666666666669,484.4286153476308,36.799999999999997
192753.91009379766,4.7333333333333334,464.07038957391455,37.033333333333331
207880.6883674915,5.166666666666667,414.6568214781343,38.100000000000001
236462.44119407452,2.3666666666666667,527.00578826292872,40.233333333333334
235939.48037822626,6.2333333333333334,449.19707552620986,42.600000000000001
245442.79788254961,6.9333333333333336,526.49019198473627,44.866666666666667
226669.06009182378,5.2333333333333334,597.7285893662837,44.166666666666664
163211.30598255762,5.2666666666666666,384.43514209578035,34.033333333333331
183101.69739213304,2.9666666666666668,371.77690988879675,30.633333333333333
157983.62364432399,3.1333333333333333,361.53873557818241,28.899999999999999
178056.77319087132,3.9666666666666668,372.07879337468177,31.333333333333332
251096.25890298589,4.1333333333333337,516.48867450187674,40.533333333333331
270312.38336291019,2.5666666666666669,642.37428405718697,45.533333333333331
230050.3329355263,6.5333333333333332,502.01866079822059,45.799999999999997
254387.89736713565,7.4000000000000004,558.7105532215744,47.799999999999997
254108.76186907018,4.7333333333333334,598.2456889192224,46.299999999999997
193241.06295900949,7.4000000000000004,466.45086453093779,40.100000000000001
233829.75200277756,4.166666666666667,454.5914482016164,36.966666666666669
172999.98894400001,4.4333333333333336,445.57520560090347,34.700000000000003
187747.07655008364,4.8666666666666663,353.96217037738114,32.06666666666667
215238.32492274084,3.0666666666666669,471.23017690063796,36.466666666666669
239542.95537765292,2.6333333333333333,521.64713282124706,40.666666666666664
210343.02562073388,5.5666666666666664,456.2331903599565,41.266666666666666
263220.70960738725,5.4333333333333336,520.15187907569134,45.966666666666669
317890.02894153196,4.4333333333333336,691.43602907912566,51.766666666666666
290281.36789394025,2.3333333333333335,717.96793254307329,48.166666666666664
242594.95852473573,2.3999999999999999,557.11915325408461,42.166666666666664
268899.81806749542,4.7666666666666666,603.02694929429526,45.93333333333333
292094.45918320853,2.9333333333333331,698.68892330779738,47.100000000000001
255119.00086489829,2.9666666666666668,583.81298520482073,46.266666666666666
325450.02671157452,3.2333333333333334,672.54119152610895,51.600000000000001
309630.29765937186,3.8999999999999999,725.81757789030064,52.733333333333334
268568.41777652205,5.0999999999999996,647.03860926171103,50.93333333333333
294056.33936044911,4.5999999999999996,655.11111182438367,51.200000000000003
245860.56818171829,4.4000000000000004,596.84697026951858,46.43333333333333
242036.17377635467,3.7999999999999998,490.72976132956387,41.866666666666667
213109.83901716972,4.2000000000000002,479.0173581239938,40.533333333333331
231152.35046251831,7.166666666666667,457.6253574743215,42.533333333333331
274600.52098384226,2.7666666666666666,639.83400478674127,44.899999999999999
251011.84299905418,2.5666666666666669,552.43732589284764,42.5
297212.62510828784,2.8999999999999999,598.56067465641866,45.0
266286.31699902058,2.0,674.96717777037861,45.100000000000001
202725.16046558507,5.0333333333333332,472.35134280229073,38.700000000000003
227583.96461634702,4.4000000000000004,463.22428285859195,38.966666666666669
191886.20556148642,2.8666666666666667,476.26261355664286,36.600000000000001
211241.78414696138,5.333333333333333,436.32109113661863,36.866666666666667
233155.87996958135,4.0333333333333332,533.56771334849645,39.899999999999999
179674.50539944877,5.4333333333333336,420.54561165269212,36.43333333333333
240468.34102774892,4.833333333333333,472.402710280419,39.466666666666669
251129.4700916243,3.0333333333333332,547.56127586065679,42.200000000000003
227798.86922435465,2.8999999999999999,568.10874645982074,42.733333333333334
245550.15276274353,3.5,539.5329545216324,40.600000000000001
255241.92347583766,4.5,592.17323748781382,46.06666666666667
250605.62345967861,3.7666666666666666,594.54218983005069,45.0
259320.18962180524,7.1333333333333337,569.72001834268349,49.600000000000001
302588.39258048323,6.0,655.45738765590374,52.06666666666667
252607.98462623043,4.1333333333333337,588.32403334566982,48.799999999999997
263770.97609360714,6.0,583.41509853885759,47.633333333333333
290458.2307716746,4.0,634.75870849011551,46.5
223898.50859015755,2.9666666666666668,597.82913846478414,39.533333333333331
209177.41649848031,2.8999999999999999,424.68285941340741,33.533333333333331
219741.87552203395,1.6666666666666667,525.86791082221907,38.43333333333333
242645.17768167533,4.1333333333333337,567.76417237122007,43.200000000000003
239122.35232348309,8.1999999999999993,550.5799169919577,47.93333333333333
296535.9997547401,9.1333333333333329,627.6789382347223,53.833333333333336
291575.86995847744,8.9000000000000004,645.38426197117883,57.200000000000003
267467.46489466453,11.300000000000001,649.7142794532042,58.899999999999999
280098.69009175349,9.3333333333333339,582.46035568562547,56.166666666666664
312361.87186459155,7.3666666666666663,685.37924915265057,57.233333333333334
259365.09940043042,6.9666666666666668,605.2443866019895,50.266666666666666
327309.82047366095,5.5333333333333332,639.24270331820856,54.733333333333334
301855.97488678747,5.666666666666667,732.01507011410831,55.666666666666664
270824.29922866856,5.9000000000000004,654.86180688589616,52.733333333333334
259747.38104434541,5.6333333333333337,580.03506990536778,47.366666666666667
246051.3537694785,5.2000000000000002,547.2191532899825,43.600000000000001
230905.27605113143,4.4333333333333336,507.60658601507589,39.633333333333333
224805.33104297551,2.7333333333333334,545.42867511093698,38.133333333333333
205344.76237761433,3.6666666666666665,480.07245098509219,35.966666666666669
200210.10245130229,3.9666666666666668,410.60975994127705,36.033333333333331
203425.89045346589,5.6333333333333337,491.29231965435736,39.100000000000001
224014.8958863396,6.666666666666667,510.2490484382846,41.700000000000003
223299.52926955587,5.0333333333333332,485.85417335790896,41.700000000000003
200284.63656268775,7.2000000000000002,478.35656213003546,43.700000000000003
267413.8364672616,6.7999999999999998,522.40880048902682,45.266666666666666
220270.9853763952,3.6000000000000001,526.67332142245004,39.533333333333331
199765.1135956053,5.2333333333333334,440.56943420684149,34.899999999999999
195942.50737855062,3.9333333333333331,435.84614071613163,34.200000000000003
262991.31008712552,3.6333333333333333,530.44372085291525,41.833333333333336
246573.60913187152,6.5999999999999996,675.99183322565671,49.466666666666669
238982.78428448128,5.9333333333333336,519.98312872174699,46.233333333333334
267975.40665318287,5.0999999999999996,570.26803063662112,46.0
200237.64885420815,3.8999999999999999,499.04750951127829,39.100000000000001
215532.15274638098,2.8999999999999999,468.0724729951645,35.333333333333336
229161.53878768822,1.3999999999999999,532.49153610566088,34.533333333333331
141288.69093943891,2.0333333333333332,445.83023777590273,30.733333333333334
177375.23660700067,3.1666666666666665,318.65181912684545,27.600000000000001
203977.33480031331,1.7666666666666666,423.57778626314098,32.5
252814.00368669649,1.7666666666666666,560.05872287742068,38.600000000000001
260225.44623588704,2.2666666666666666,613.19549338153752,42.700000000000003
246596.83910670324,5.0999999999999996,568.94990186279142,47.366666666666667
306905.12876375497,7.3666666666666663,649.1292234650839,54.233333333333334
296608.50133709761,6.0333333333333332,695.13024141982635,57.06666666666667
274607.098833989,6.7333333333333334,616.44120274361046,52.233333333333334
242094.25550443699,6.2999999999999998,485.44506008985547,48.633333333333333
317677.82597639324,5.7666666666666666,622.69716426766888,50.600000000000001
227489.89037995302,2.6000000000000001,624.21581540748696,42.833333333333336
169831.44943319718,4.5999999999999996,437.38802284794326,31.366666666666667
189786.41778250816,2.8666666666666667,380.99774519055052,29.033333333333335
159323.43168077656,2.8999999999999999,401.15633924334389,30.566666666666666
201394.65777929142,4.0,392.25025601124599,35.200000000000003
290005.70936267893,4.666666666666667,562.62020476583564,48.0
309130.85292654776,2.8999999999999999,754.62081029084811,54.233333333333334
312159.62706470781,5.0666666666666664,736.5804640501683,55.899999999999999
226836.19640682277,9.6666666666666661,570.30321538916405,49.166666666666664
279186.11712823063,6.5666666666666664,598.87724276915208,48.366666666666667
247074.62991996188,3.8999999999999999,548.22702556112495,43.0
277654.29374570836,3.3666666666666667,603.87039502647951,44.466666666666669
222227.19180808944,3.6333333333333333,513.47607237560476,42.133333333333333
269216.52793880523,4.2666666666666666,583.73667596709311,44.100000000000001
256717.02094258807,6.7666666666666666,566.69870784079205,48.93333333333333
310070.0392011053,5.7333333333333334,671.0105292366386,52.866666666666667
286268.25425283576,6.666666666666667,659.66999049726576,53.600000000000001
268173.52101450349,10.466666666666667,590.95237539755226,53.43333333333333
291522.48242024519,7.9666666666666668,633.65303461469159,53.966666666666669
289858.07289445918,7.0999999999999996,666.31123527053535,51.866666666666667
237688.6530139992,5.5666666666666664,578.93955013561515,46.733333333333334
278347.91422759357,4.2333333333333334,587.3593987945286,46.799999999999997
249147.47041898716,4.0999999999999996,629.43590196131493,45.766666666666666
256918.90329157223,5.7000000000000002,580.23019935098012,46.766666666666666
238336.72533380825,5.2000000000000002,547.89301756147222,44.06666666666667
226146.29044692143,4.9000000000000004,493.3599216525252,41.299999999999997
251729.72179847272,4.666666666666667,483.13950575954203,43.0
245322.96767612701,2.7000000000000002,605.891639813761,43.43333333333333
223252.20199602839,4.0666666666666664,491.88093437277388,39.399999999999999
238372.90287631296,3.4666666666666668,494.92009082479404,37.633333333333333
197008.76938606586,4.7666666666666666,441.845473257234,37.333333333333336
240781.47439503099,5.0,495.50327813774828,41.366666666666667
263292.980021291,3.5,585.53549497553729,44.366666666666667
243015.00300308561,6.1333333333333337,563.78944317941955,46.466666666666669
281381.71795200481,6.2000000000000002,607.76688890109733,49.266666666666666
240815.29202430375,8.4000000000000004,567.33140125513376,50.166666666666664
243457.39583031487,7.4666666666666668,521.48613730242084,47.666666666666664
306941.36786865094,3.9333333333333331,639.81285442935871,48.766666666666666
219336.90658446334,5.2666666666666666,623.9106135165265,44.366666666666667
212750.35408984305,3.2000000000000002,461.04631941061581,37.600000000000001
207706.94381197792,3.8999999999999999,526.91106626835756,36.43333333333333
215922.86236956244,2.8999999999999999,539.56564572093703,36.56666666666667
174792.11763429327,2.2333333333333334,436.92843364116726,31.233333333333334
222071.53784010783,3.6333333333333333,454.32094844341424,35.333333333333336
177638.38493801327,3.5333333333333332,444.3636753785525,35.233333333333334
254011.66670917001,3.0666666666666669,491.01367924203777,37.899999999999999
255674.54480529737,3.0333333333333332,565.57143600400241,42.233333333333334
257764.3068574178,2.8999999999999999,575.96571318939846,44.43333333333333
232032.51485066095,5.2666666666666666,538.70923786343076,45.56666666666667
249888.37110767991,6.6333333333333337,510.28401782720744,44.266666666666666
260074.75809787953,3.6666666666666665,558.56452289704805,42.799999999999997
248275.7854209131,3.5,575.25760517016465,41.266666666666666
263635.19079863274,2.6666666666666665,584.33520406550792,42.233333333333334
215201.54287159073,5.2333333333333334,566.43400126734264,43.799999999999997
266143.00370970386,6.7666666666666666,607.99590077234336,48.600000000000001
269615.1588888776,5.7000000000000002,566.79269595888513,49.133333333333333
288681.96449597558,5.333333333333333,609.03731360050426,50.5
298773.41912992683,4.0,649.25495878806919,51.333333333333336
309917.87263469119,4.4000000000000004,717.3971928946761,51.733333333333334
298321.82091753901,3.4666666666666668,651.4497491644313,49.133333333333333
252864.84311050957,4.0999999999999996,564.74457730969038,47.266666666666666
306463.45171335177,5.7000000000000002,676.57451966331541,52.333333333333336
272044.19942025439,4.3666666666666663,646.45100131982315,50.233333333333334
260436.18339251913,7.6333333333333337,587.44647136389619,49.0
303219.87312351429,5.166666666666667,645.44805179992886,51.633333333333333
305720.6299822763,4.166666666666667,685.58064895800499,53.0
296929.7191038499,7.9333333333333336,654.70262662788775,57.133333333333333
355903.09898806573,5.8666666666666663,728.06725056226276,59.100000000000001
302034.85140184168,7.7000000000000002,771.64359232056222,60.033333333333331
262714.91912413662,6.7000000000000002,570.80827864297476,49.133333333333333
267396.75125823246,6.2333333333333334,564.8334464343269,48.033333333333331
300566.71296577848,4.0,643.97933351568042,47.966666666666669
234321.63644401092,5.4333333333333336,614.62968821085531,47.899999999999999
252344.91284007393,5.6333333333333337,497.25019417224422,43.766666666666666
257368.41593969829,5.7333333333333334,595.44925431854472,46.866666666666667
226074.40523505831,9.6333333333333329,547.32542060654646,47.5
235119.22227825731,6.6333333333333337,493.59397418849244,45.0
251498.01543147402,3.6333333333333333,543.48458101118786,42.93333333333333
223169.74517451276,4.7000000000000002,517.01518198104725,39.033333333333331
156280.30372969687,3.7000000000000002,384.67645231613238,32.200000000000003
193785.81102765989,3.4333333333333331,392.64770978849157,32.033333333333331
179441.34412022491,3.6333333333333333,419.87506162398819,33.0
207409.16038798136,3.0666666666666669,492.51149420113398,35.600000000000001
200133.01054497936,2.5333333333333332,434.89610549362237,34.466666666666669
191601.37232218304,4.1333333333333337,458.06744188379855,36.399999999999999
220469.75799943527,3.6000000000000001,444.40669477893158,36.366666666666667
213582.69332128009,6.5333333333333332,486.60584382243599,41.06666666666667
236852.80056829532,10.0,561.50135628663463,44.766666666666666
207352.39474207908,9.7666666666666675,515.88790214264054,45.56666666666667
257115.38839424288,8.5999999999999996,554.02803471042364,48.700000000000003
296440.09541795606,6.5999999999999996,636.94226134362191,51.93333333333333
295240.38748572557,6.7999999999999998,671.16400799080725,53.766666666666666
287291.26505050034,5.333333333333333,712.97572425688963,51.666666666666664
197318.93006950375,10.1,502.54326392360406,45.700000000000003
203645.67830796575,8.2666666666666675,453.48471952321194,42.5
205478.58810061935,5.0333333333333332,397.57593740033656,39.299999999999997
254133.59144208068,5.333333333333333,556.27840925200655,41.866666666666667
189728.95007322647,3.9666666666666668,457.1496314946657,36.166666666666664
206099.10997788233,3.3333333333333335,450.26521345864916,33.533333333333331
202357.32057110054,2.3666666666666667,465.99914401918164,33.966666666666669
194630.51681696984,3.2333333333333334,463.94835231400054,33.93333333333333
202781.14318009483,3.2000000000000002,446.70956446682226,34.700000000000003
224658.22142464289,2.3333333333333335,524.58080219060548,37.866666666666667
242363.6166393123,3.0,529.9531876141142,41.533333333333331
268059.92419637158,3.6666666666666665,607.22212448263076,45.366666666666667
267225.00211429241,4.0999999999999996,611.97845834755594,47.233333333333334
247460.6775153889,5.9333333333333336,557.21188785820254,46.799999999999997
249200.14939660189,7.0333333333333332,527.18296964746798,47.166666666666664
249788.97988226637,4.9333333333333336,592.69828299965991,43.56666666666667
238288.9416882958,3.9666666666666668,523.58167971287253,40.299999999999997
191972.81777886991,3.2666666666666666,471.07418349314344,35.200000000000003
204956.38641771866,5.6333333333333337,451.57909733635989,35.633333333333333
200109.48465090047,3.3333333333333335,448.12657332635888,37.06666666666667
241081.703207438,3.5,494.38099352026899,39.233333333333334
307072.86158557056,4.7000000000000002,596.44336488767522,48.200000000000003
302843.60089705366,4.8666666666666663,751.86177984277413,53.93333333333333
202396.30015611471,10.6,580.02700739923557,50.766666666666666
235490.4352770439,8.0,491.51401143518609,48.133333333333333
312873.63049937575,3.6666666666666665,596.90506102393931,48.233333333333334
244440.69943234217,4.333333333333333,631.71097772589644,46.43333333333333
285585.16576381028,3.2000000000000002,590.43751277899969,44.033333333333331
292367.25115314592,1.9333333333333333,666.08740106419498,46.799999999999997
256540.795311717,3.6333333333333333,653.68807862123981,47.43333333333333
261383.7590171831,3.8999999999999999,617.98124186777795,45.233333333333334
274137.56413223909,5.5999999999999996,558.17231939620535,46.166666666666664
325907.40899490746,6.333333333333333,739.66269390699097,55.200000000000003
304283.68975932768,5.2000000000000002,674.25883871599433,57.5
308163.75931429898,8.7333333333333325,721.29983360157894,59.033333333333331
253602.41450265085,12.133333333333333,557.54052611077498,56.666666666666664
317209.46527332865,8.0999999999999996,636.99094328679166,56.899999999999999
294321.87228983926,7.0999999999999996,665.84668977150625,57.799999999999997
316435.85537991737,6.9666666666666668,696.77523507848332,54.799999999999997
279297.79284115153,6.666666666666667,667.98475702482926,51.766666666666666
281600.03473758686,4.6333333333333337,615.47281433091325,48.166666666666664
246416.43124907697,6.2000000000000002,615.51252175290062,48.466666666666669
243160.38614971744,6.7000000000000002,572.53034847186575,46.899999999999999
279126.59159822733,6.5999999999999996,552.14784756045754,48.333333333333336
238119.39128960992,5.2666666666666666,606.55870615764718,48.266666666666666
242173.96707965442,7.2333333333333334,501.2406526674697,43.200000000000003
205569.39026735531,6.666666666666667,576.57236696661994,42.333333333333336
199986.82411547456,3.1333333333333333,429.99817239149621,34.133333333333333
185965.7936080478,2.2666666666666666,408.79230906259107,31.800000000000001
135810.76873670577,5.2333333333333334,372.00483493696686,29.800000000000001
209674.03448305363,2.9333333333333331,391.62255998826856,31.466666666666665
231349.8995782696,1.3,528.64465935230214,35.533333333333331
191237.64298560281,3.3666666666666667,522.70243607259806,37.43333333333333
171134.35115515243,5.5333333333333332,333.90931094154155,36.033333333333331
275132.18415600713,6.2666666666666666,536.81684483566164,43.766666666666666
188828.56608234686,5.5999999999999996,496.74861884243558,41.899999999999999
247596.29764393045,4.4000000000000004,490.58687224908442,40.799999999999997
223478.08652281968,4.2000000000000002,563.59491949040626,39.700000000000003
202660.61756491804,5.0,501.04001450250081,37.866666666666667
231986.01767447803,4.5666666666666664,495.81893325383334,40.966666666666669
250993.2880539922,4.7000000000000002,584.49141252512743,45.43333333333333
206122.77075684236,6.1333333333333337,485.99145417616768,44.06666666666667
232965.75274495216,6.0666666666666664,455.98986106407762,41.700000000000003
269370.85958767607,4.2666666666666666,566.65364246792603,45.5
287164.28109296196,3.7333333333333334,664.57980525285541,46.100000000000001
236001.8878932512,4.8666666666666663,586.75883613463634,43.43333333333333
225059.59028076203,4.6333333333333337,499.28301070259022,38.899999999999999
208126.60809530961,3.8333333333333335,517.9672632261146,38.866666666666667
204176.67399188611,4.4333333333333336,444.10021750172234,37.43333333333333
281272.20450708008,2.5,553.40613497424783,43.06666666666667
262115.76248361124,4.833333333333333,631.1573852021944,47.766666666666666
240724.75362919355,7.5,638.81720668277342,49.100000000000001
283269.60259764892,5.2999999999999998,541.57997414138867,47.299999999999997
258123.64634225398,4.9000000000000004,556.66699181013894,48.56666666666667
294159.63068263582,7.2666666666666666,628.40302607292028,53.033333333333331
289413.69969194761,9.3666666666666671,677.69108088926157,54.966666666666669
279521.18295988551,5.4666666666666668,638.71360188108213,51.0
269618.33069061337,4.2000000000000002,677.45679896654735,48.200000000000003
203815.45468349307,3.7333333333333334,532.30152934874366,39.299999999999997
238384.17995918449,2.7666666666666666,440.8176472892635,35.166666666666664
238053.3567079624,2.1666666666666665,584.09617137571558,40.366666666666667
231010.2132967026,3.6333333333333333,553.80834745496986,41.700000000000003
243209.90702065351,4.9333333333333336,514.45737605859927,44.466666666666669
267093.6644329328,3.7333333333333334,612.31993016911906,45.366666666666667
165785.18561204345,7.1333333333333337,424.46894039602518,39.033333333333331
228954.53418851306,7.9000000000000004,419.50140730819362,38.966666666666669
245462.51520059313,3.9666666666666668,591.70584564189141,43.299999999999997
222981.29078975288,5.5333333333333332,494.19622604200151,40.033333333333331
212420.55535956463,5.4000000000000004,487.1648111954737,40.0
261440.94728652414,2.8333333333333335,539.06928603595429,41.93333333333333
251812.37893311208,2.9666666666666668,579.326135198668,42.200000000000003
212621.48566052655,4.6333333333333337,538.06913280486708,40.43333333333333
251724.40892220722,2.5666666666666669,532.62448487248241,40.06666666666667
236929.76136178634,1.8666666666666667,579.80533799297848,40.333333333333336
235063.26254234559,4.2999999999999998,509.22674351154552,42.06666666666667
261020.10527883115,5.2999999999999998,608.03998960231331,46.666666666666664
213747.04034522641,7.7666666666666666,534.81503417919669,45.633333333333333
308405.51387932751,4.7000000000000002,574.74200063483158,45.466666666666669
229629.84250984658,4.4666666666666668,624.80635587279505,44.899999999999999
219428.02934595905,3.2666666666666666,485.6297641028853,39.299999999999997
269636.71605281904,2.2666666666666666,569.96745865825369,43.033333333333331
270575.93156153482,3.7666666666666666,626.95334885606098,47.133333333333333
242779.78874431833,4.8666666666666663,595.26077058583655,46.333333333333336
224777.83506877875,6.5666666666666664,480.20072621101122,43.766666666666666
258600.92331319608,4.4000000000000004,562.73570170064568,44.966666666666669
238679.85393299256,3.5,536.13056190217162,42.033333333333331
186573.86452403889,8.8333333333333339,466.85244051439605,40.06666666666667
225627.57928166728,5.9333333333333336,419.4327256728223,41.166666666666664
264934.44907717203,3.8333333333333335,587.43819930423547,45.299999999999997
193554.37569762926,7.9333333333333336,467.36588650215339,41.100000000000001
224727.42672809106,6.7000000000000002,426.88537466953431,42.666666666666664
262038.63330631226,4.5666666666666664,568.68887220126942,45.399999999999999
250970.35718370145,5.2333333333333334,596.56184112580172,44.733333333333334
221375.40851356069,3.5333333333333332,502.24743853670952,37.766666666666666
220598.83445221596,3.0,453.5715419732764,37.899999999999999
274423.28556891734,5.0,598.37447624783124,44.56666666666667
221125.3591350166,4.2000000000000002,579.88134024102135,43.166666666666664
217757.99803498967,6.4000000000000004,481.74138835384201,40.233333333333334
183737.9295944531,7.3666666666666663,426.09181308838288,38.200000000000003
202329.81764161208,7.2999999999999998,467.78006681699088,38.100000000000001
215169.9847391384,4.2666666666666666,439.39176911553199,37.133333333333333
205035.40677816299,3.8333333333333335,519.36137824740536,38.0
216113.63147533234,5.0666666666666664,468.01883915700427,37.733333333333334
228437.34465948323,3.9333333333333331,460.47504882199399,39.43333333333333
263750.96264154953,3.0333333333333332,612.66164432000426,44.633333333333333
281497.93645150313,3.7000000000000002,617.75916925616775,46.266666666666666
256396.2509965045,2.9666666666666668,631.96981456496076,46.200000000000003
240679.0861575602,4.3666666666666663,579.16695011879278,42.833333333333336
220354.22662732846,6.4666666666666668,518.76197126845034,41.233333333333334
225050.12344535918,6.1333333333333337,470.57538197054589,41.766666666666666
248638.64091518809,3.6000000000000001,530.90307455587447,43.56666666666667
254793.4207036625,4.5666666666666664,561.84012830345091,46.133333333333333
306281.20832477097,3.1000000000000001,669.32182001914919,48.93333333333333
252250.04068025498,5.3666666666666663,615.18699426636647,49.766666666666666
299620.06795286317,5.2666666666666666,604.64023801659641,51.766666666666666
292790.43392806879,6.2666666666666666,632.66280958180937,54.5
239224.30778384762,13.933333333333334,606.64326958279787,51.700000000000003
255082.42168509748,9.5999999999999996,579.97536250409155,50.799999999999997
282541.31748428446,8.0666666666666664,587.4801281987676,50.700000000000003
255428.68372677194,5.833333333333333,626.89975739755209,49.166666666666664
259094.21339568959,6.333333333333333,537.29927397116069,46.06666666666667
266694.27706719801,4.9666666666666668,632.2453741223909,47.06666666666667
261807.69679163344,3.7000000000000002,570.13318857733168,45.466666666666669
281145.85098434077,4.2333333333333334,599.05954950777709,47.666666666666664
268611.17694591655,7.5,668.59477513737136,51.633333333333333
243748.27629973617,5.8666666666666663,579.87098552089083,46.666666666666664
227614.92207762116,6.9000000000000004,469.48293927602532,45.0
255844.6573733743,6.4333333333333336,548.05633610002928,45.966666666666669
219869.65441077261,7.5,539.44544651118952,41.93333333333333
216721.84004785863,6.0333333333333332,412.52641081655401,38.299999999999997
273830.99605520611,3.5666666666666669,606.55408697671487,44.5
248429.1556960858,3.2333333333333334,544.26368754142118,42.93333333333333
309994.7064887539,3.6333333333333333,631.27916851625616,50.033333333333331
262087.80010065585,4.7000000000000002,690.2091626968803,49.666666666666664
253322.08288050714,7.4333333333333336,552.1736008569012,47.56666666666667
245684.58206674072,6.8666666666666663,500.41221659815653,46.633333333333333
276949.13451976585,5.2000000000000002,598.67118437338831,48.899999999999999
206810.71436663237,7.0,485.71994198047952,43.799999999999997
273381.84818734555,4.9000000000000004,504.54779746663007,44.366666666666667
251922.51610353071,3.7666666666666666,647.75769870772126,44.266666666666666
216124.4358097364,5.333333333333333,524.60841868343948,40.866666666666667
222845.56570169106,4.6333333333333337,445.50820683914776,38.56666666666667
239061.92089041451,2.8333333333333335,569.24623444973929,40.733333333333334
238118.97215527357,4.333333333333333,511.28087264827423,41.56666666666667
181905.16763476256,8.7666666666666675,459.60838430830557,41.966666666666669
228988.7836298373,6.0999999999999996,490.11169007984302,42.966666666666669
280876.09019028337,6.4000000000000004,562.26854732830884,48.100000000000001
222402.1873074063,6.7666666666666666,557.96133112107339,45.666666666666664
258725.27762103995,4.4333333333333336,523.46940991415977,44.133333333333333
248865.2849293584,6.6333333333333337,522.76858734968675,45.666666666666664
222300.05481800245,6.4666666666666668,550.88183098203228,45.06666666666667
288513.04754873685,6.5666666666666664,578.48810032016138,49.233333333333334
267197.59239678952,5.5333333333333332,631.33143695697368,50.200000000000003
250974.15077374637,4.9333333333333336,581.47544017189477,49.700000000000003
270532.51295223186,4.5333333333333332,521.65535134491768,45.466666666666669
230044.99060028122,4.4333333333333336,587.9768896491554,46.833333333333336
256581.59508004057,3.3666666666666667,544.33253476942582,41.633333333333333
247547.54487370152,4.2333333333333334,533.56808445740273,43.100000000000001
236521.29279550869,4.4666666666666668,548.4420340986029,42.200000000000003
228250.72776165127,4.2000000000000002,509.43125063253041,39.5
186330.57693381963,4.4333333333333336,485.85822772191608,36.233333333333334
212953.02341948258,5.1333333333333337,441.55151466845462,35.666666666666664
188250.94301658374,4.1333333333333337,454.28836181069397,36.93333333333333
252945.28883145485,4.2000000000000002,496.17738614182343,39.533333333333331
221423.64077646745,4.5333333333333332,545.65203692254101,42.766666666666666
240141.05245341369,4.9000000000000004,505.93503547983255,41.100000000000001
222548.15815589204,4.5,498.56352238913001,40.333333333333336
224187.61798027251,5.1333333333333337,554.874641435429,40.833333333333336
250459.85306391752,4.166666666666667,523.67310773605766,40.166666666666664
198634.39517215741,4.5999999999999996,516.37681082677022,39.899999999999999
239601.71806092208,5.6333333333333337,478.47905860988925,41.466666666666669
214647.15339965126,7.2666666666666666,504.31462458453404,45.533333333333331
207809.55381989686,8.4666666666666668,466.25944493371219,45.200000000000003
266010.75488562806,5.0333333333333332,552.85290759665281,45.899999999999999
217678.64949009899,4.8666666666666663,567.6831868640578,41.899999999999999
213383.85265163166,4.9666666666666668,492.43923947610398,39.766666666666666
226267.93444803648,5.2333333333333334,508.77793951270115,40.600000000000001
249743.38162176425,3.6000000000000001,526.02186806399675,40.733333333333334
204908.02063949345,4.0666666666666664,533.31959442801679,39.633333333333333
169937.42460198255,3.8333333333333335,414.91832380176118,34.533333333333331
210909.91209083574,3.9333333333333331,417.27741748541507,34.0
247901.60851717368,1.8999999999999999,547.53783668696053,38.633333333333333
250071.84158943064,0.93333333333333335,606.55854011451981,41.200000000000003
223101.2707089913,2.7999999999999998,509.80404112281332,39.166666666666664
200734.33575540522,3.7000000000000002,447.12879960506541,37.266666666666666
216617.38388764454,5.5666666666666664,490.29468999208081,38.733333333333334
224824.05419980557,3.2000000000000002,568.89421631466598,38.600000000000001
182283.29857241892,3.6000000000000001,414.75297062850217,35.0
213807.55668841998,4.2333333333333334,471.73572080383366,38.93333333333333
195796.55208922195,3.4333333333333331,474.86914642033105,37.766666666666666
234453.20408437622,4.4666666666666668,477.10231853924864,40.299999999999997
247573.44404351991,2.6000000000000001,562.27761537012054,40.799999999999997
260729.8291655237,3.3666666666666667,523.04623286085064,41.966666666666669
258026.53504648994,4.2333333333333334,580.16839239006993,44.866666666666667
281370.62932271708,3.2999999999999998,669.62774674084255,49.0
296776.00707236037,3.2999999999999998,668.87407151946331,49.700000000000003
270355.86670115846,4.833333333333333,635.45153360820973,50.600000000000001
305275.67481909652,4.8666666666666663,643.94547382599262,52.166666666666664
299754.75397564512,5.4000000000000004,646.16508199148245,54.166666666666664
272517.88257488597,6.2666666666666666,610.12816550307446,52.5
242495.6822728987,8.0999999999999996,576.86827072844324,47.533333333333331
241540.22847672206,5.7666666666666666,523.84702119453812,43.166666666666664
186469.40676039772,4.333333333333333,463.06556759683065,36.333333333333336
235812.88510701057,2.7333333333333334,448.02353247288585,35.033333333333331
185410.82171576735,1.6000000000000001,519.37383873332806,33.399999999999999
238494.14926968364,2.3999999999999999,462.23388354747993,35.06666666666667
216327.64723733652,2.2333333333333334,556.64983520931492,39.399999999999999
172540.01822722843,7.8666666666666663,441.70079671451208,38.93333333333333
234574.64065666392,9.9333333333333336,416.28679743463994,44.43333333333333
208926.14069777992,14.4,524.9350765817893,48.06666666666667
236056.5687855565,9.7666666666666675,498.49666580153138,50.766666666666666
359046.63020535134,6.2333333333333334,701.56176332642019,57.93333333333333
320569.47055956005,5.0,812.34942296628901,58.333333333333336
292584.50586254109,4.0333333333333332,637.45629569329753,49.93333333333333
290789.7025685652,5.333333333333333,658.57396681174794,50.5
285044.81973379856,6.0999999999999996,644.70104403861228,50.700000000000003
275621.02064168738,5.5666666666666664,603.56001032279403,49.700000000000003
322032.84893611871,3.3333333333333335,722.87523653266612,52.899999999999999
226863.3518137935,4.4333333333333336,568.32279219830627,45.966666666666669
262165.11095309764,4.2666666666666666,524.35626348183803,43.93333333333333
261463.5351292151,2.5666666666666669,589.87093599921877,42.733333333333334
193607.45172167942,4.2666666666666666,485.05291892449088,37.866666666666667
246618.75911729055,4.9666666666666668,465.03033895878912,39.033333333333331
210063.05191153867,4.0666666666666664,505.69044181180362,40.733333333333334
242335.38620891271,5.4666666666666668,510.08147378115609,42.200000000000003
254226.66118565571,2.7999999999999998,580.23376079642082,44.5
269044.9727577598,2.8666666666666667,582.07505004788561,43.93333333333333
247695.09297672179,5.5,662.23413397651461,47.700000000000003
243660.3272254614,7.833333333333333,537.9228757159733,46.466666666666669
270355.23562599259,4.833333333333333,608.0887451021382,48.799999999999997
298071.62198605057,5.7999999999999998,600.36102133638042,50.299999999999997
314422.87750311184,3.7333333333333334,727.13065148022679,51.299999999999997
263851.00741718785,4.2333333333333334,657.2210582652267,46.93333333333333
267293.99210046744,4.0999999999999996,603.13791902519699,45.466666666666669
209677.9123637368,4.5333333333333332,524.54322916966578,40.700000000000003
213781.84387483957,5.5333333333333332,433.89522114265833,39.866666666666667
271028.51430525177,3.8333333333333335,562.05373559470524,43.866666666666667
285686.05329237244,2.3999999999999999,660.19440644405472,45.766666666666666
283061.22278536577,4.833333333333333,616.13277574022629,51.06666666666667
368899.5900896322,5.7333333333333334,736.42560277228768,60.600000000000001
299204.70072434627,8.4333333333333336,704.66210607275923,62.166666666666664
382538.4261754778,7.5999999999999996,772.10094784626961,66.5
388595.13114904449,4.5666666666666664,850.80482805075576,64.733333333333334
280507.26022626209,9.8333333333333339,773.79217175421786,58.100000000000001
245093.06082466521,6.5333333333333332,490.19280696522031,44.200000000000003
300856.19203135557,3.0,600.84742071734081,46.533333333333331
225483.08431936087,4.2999999999999998,589.08839691957678,43.733333333333334
231861.51581179784,5.7000000000000002,486.53749261404681,42.100000000000001
241442.50615391968,3.7666666666666666,509.51541788762677,41.333333333333336
192286.87619724951,5.7666666666666666,503.67094751396138,39.399999999999999
249761.10998382283,7.2999999999999998,451.4374312055113,40.333333333333336
220651.16199132509,8.7333333333333325,544.0983077920539,46.533333333333331
294821.0555780938,5.3666666666666663,596.91267047636961,50.43333333333333
296363.47010748583,3.8999999999999999,633.81544657160885,50.533333333333331
268609.41887618537,4.8666666666666663,658.85222892682384,48.600000000000001
222402.88656621106,4.7000000000000002,496.59164992260736,41.166666666666664
221062.68091519273,3.1000000000000001,498.42353818058012,38.333333333333336
186178.16389270558,3.5333333333333332,471.59618341569688,36.200000000000003
201001.28482242834,2.8333333333333335,424.52094935053429,33.133333333333333
232044.87142376648,3.3333333333333335,506.27930477887372,38.600000000000001
220234.36649646584,4.7666666666666666,518.01079591840755,39.633333333333333
244705.64861797201,6.9000000000000004,506.80855538620142,47.033333333333331
251063.92216837217,6.7000000000000002,597.80708497003332,49.5
261801.42338208688,8.9333333333333336,511.86495977006535,49.533333333333331
292774.47254679597,5.0333333333333332,645.62924749913589,51.100000000000001
316648.58016075898,2.5,687.81984570356121,49.733333333333334
262878.55353529542,4.4666666666666668,588.7795915958028,48.5
250525.82167598026,5.4666666666666668,555.08489116707267,46.299999999999997
288304.09020477027,4.5,647.78574531850677,47.866666666666667
189487.74585921175,6.1333333333333337,529.41388967050284,40.93333333333333
214202.46268840347,5.0666666666666664,414.52377243629905,37.466666666666669
245405.86808450302,2.2666666666666666,536.6332763354186,38.966666666666669
186935.81887573813,4.3666666666666663,441.17133796168099,36.5
206249.39114479421,4.4333333333333336,410.83703354298308,36.266666666666666
239265.68186076684,2.2333333333333334,542.47669029037297,36.93333333333333
195930.15876982748,2.6666666666666665,496.91496903808348,35.533333333333331
148880.61215215715,4.4666666666666668,338.21291755611099,29.600000000000001
202402.75030936123,2.2666666666666666,445.39725656073352,32.899999999999999
182184.94281454338,3.2000000000000002,497.98900307073626,33.733333333333334
203041.9218962203,3.5333333333333332,439.88400045525452,31.933333333333334
143614.88904792009,3.2000000000000002,381.58555284244795,30.033333333333335
161818.95038069788,6.0666666666666664,371.44482735169419,32.5
202996.24449288347,6.1333333333333337,432.99369781651524,36.600000000000001
247014.20485074783,3.7666666666666666,510.07411915651988,42.06666666666667
313659.96514713962,3.2333333333333334,698.21856566760778,51.5
294403.72605250194,4.7000000000000002,696.2638417306847,52.299999999999997
273812.21077514475,6.6333333333333337,624.21934941225425,50.966666666666669
247223.56429303024,6.5666666666666664,558.63514436558023,50.899999999999999
289801.97445045569,9.0,585.76004357800059,53.533333333333331
312516.82532886753,6.5666666666666664,695.26408429860589,55.133333333333333
303756.85542315635,3.9666666666666668,713.65845810380176,54.133333333333333
234764.02536054561,9.0999999999999996,551.28340746217259,49.799999999999997
319539.19727231667,6.3666666666666663,629.61912332351096,52.399999999999999
287895.57958941441,3.8666666666666667,685.48264176658847,52.333333333333336
247902.59941261474,7.1333333333333337,615.47733021768352,48.166666666666664
271777.83614225383,4.3666666666666663,546.29838302620158,44.43333333333333
208866.71570827172,4.5666666666666664,540.0188935504666,40.93333333333333
241812.80712612378,4.2333333333333334,481.25635711655178,39.93333333333333
217966.22330701386,4.1333333333333337,536.15840037089845,40.06666666666667
193234.28610047133,4.0999999999999996,430.67091078022236,37.766666666666666
238227.41762085128,3.0666666666666669,504.69578861254263,39.733333333333334
187454.50807758901,3.7666666666666666,454.61317957088443,36.06666666666667
181642.70977050526,4.7333333333333334,394.07312984684637,32.366666666666667
208823.69025810371,3.0,451.19321305886422,34.233333333333334
226039.31790906636,3.5666666666666669,519.70922664668615,37.5
227476.6334333652,2.7333333333333334,503.93159518131517,41.166666666666664
228872.59156079942,4.8666666666666663,495.33285889051814,42.733333333333334
267604.53957618814,6.2000000000000002,498.58831650751887,46.299999999999997
260861.78275705126,4.8666666666666663,651.80062508111644,47.100000000000001
217523.14126989472,3.9333333333333331,478.98677458642413,40.5
229393.46623094604,2.2999999999999998,539.1874839223542,38.06666666666667
176820.49928626386,3.0666666666666669,420.23582185001004,33.633333333333333
179631.14411507553,2.2333333333333334,383.32399090753421,30.066666666666666
231647.61478289025,3.0666666666666669,448.16727382623509,35.133333333333333
169234.16960807177,4.0333333333333332,436.86569099966187,34.033333333333331
188138.72385947464,4.5666666666666664,391.68337750686078,34.366666666666667
237264.83331830197,2.7999999999999998,529.62367124436639,37.366666666666667
184515.0098580035,3.0666666666666669,532.84101997065011,37.033333333333331
188546.69578903916,4.5333333333333332,407.13442423971225,32.299999999999997
199293.27407961016,5.0333333333333332,434.80913526833751,36.833333333333336
284327.63646188966,2.6666666666666665,593.87336730877155,43.866666666666667
239338.47166728872,5.5333333333333332,590.77065840012381,45.899999999999999
248515.81481059548,5.0333333333333332,550.44589203874045,44.93333333333333
264761.38446847681,4.7000000000000002,591.64697377686718,44.899999999999999
244914.58724624699,4.5,509.02276392192471,42.799999999999997
200883.28293409341,6.166666666666667,510.21659655350402,41.43333333333333
290997.93310003047,5.7333333333333334,534.91317333090547,45.266666666666666
251532.40797580685,3.8999999999999999,641.67987477137933,46.600000000000001
253047.76834686796,5.6333333333333337,529.41195952597946,45.966666666666669
256694.72262994165,8.4000000000000004,589.69293484294883,49.366666666666667
268751.12390550436,5.3666666666666663,628.78922149435982,51.43333333333333
293116.33518455212,3.8999999999999999,630.64334853787886,47.266666666666666
247694.02152079376,3.4333333333333331,602.54313964549226,44.833333333333336
194691.58432827526,4.5333333333333332,506.49509294093025,37.56666666666667
229991.50090558539,3.5333333333333332,437.98146749785661,37.766666666666666
235451.33257991899,2.3666666666666667,557.68313326055272,38.966666666666669
263220.78390096402,2.5666666666666669,541.53926991463993,41.233333333333334
206553.85227768353,2.2666666666666666,562.84774979697954,38.399999999999999
212412.30573973092,3.2333333333333334,426.21907950692798,37.333333333333336
246355.64413778653,5.0666666666666664,531.22764932700875,43.399999999999999
286307.4465891702,4.3666666666666663,624.40010833406643,49.799999999999997
360286.64685221796,4.166666666666667,734.99093085515835,55.399999999999999
260119.93150027274,7.9333333333333336,704.38559921713431,55.533333333333331
292791.69047351286,7.666666666666667,593.47494116843882,53.033333333333331
361879.33141421829,3.6333333333333333,757.33794046504363,56.166666666666664
297404.7837397753,5.5999999999999996,684.13009105595017,55.533333333333331
300731.42448501592,5.2333333333333334,670.98820396218503,53.733333333333334
280771.4611739454,7.2666666666666666,624.25626063648792,53.666666666666664
331637.88162938529,5.5333333333333332,717.89240295418881,55.666666666666664
296476.07254418574,7.6333333333333337,723.91857038043179,55.266666666666666
266918.48493490304,6.7666666666666666,588.80488365255724,50.56666666666667
260277.01273648426,5.2000000000000002,604.66970846367656,48.5
266389.41661764588,7.833333333333333,580.02827230047376,48.966666666666669
286166.36576456763,5.9000000000000004,608.28869263908962,47.899999999999999
235139.18461817157,6.4000000000000004,598.28455845462918,47.200000000000003
199609.37901077,7.5,448.54924577083131,41.766666666666666
277877.19582329172,6.9333333333333336,558.38118535896172,45.100000000000001
252220.64977690566,5.0999999999999996,578.34963145729,45.966666666666669
250226.59483657175,4.4333333333333336,573.0531130805889,44.43333333333333
249763.87881714915,5.7333333333333334,523.45196046474564,44.666666666666664
226201.79732522304,6.0999999999999996,569.63468501857596,44.133333333333333
233914.31604522813,6.2999999999999998,481.23720283174498,42.06666666666667
253074.30639164167,4.4333333333333336,499.4209706779497,42.666666666666664
238772.14696047414,4.9000000000000004,602.24862431007409,45.600000000000001
214654.03186385764,4.4000000000000004,525.36749022453193,40.56666666666667
220973.34023233093,4.5,464.02984644699586,37.766666666666666
231207.7797829406,2.2999999999999998,516.0155917561126,39.200000000000003
232662.85463439728,3.3999999999999999,510.28255873801726,38.399999999999999
225902.59877933297,4.7999999999999998,474.85023457436341,40.43333333333333
212376.3401683699,7.0,523.53895926723942,42.366666666666667
204702.2302629207,6.8666666666666663,467.71202004504062,43.133333333333333
259916.84700287582,5.2999999999999998,541.00927585155853,47.333333333333336
316594.02098407823,3.9333333333333331,651.1614833101296,52.0
292792.84068949556,4.3666666666666663,685.67900061772559,52.600000000000001
221862.95059465949,7.7000000000000002,598.81222304560436,47.399999999999999
287805.06860015244,6.0333333333333332,538.92208949715882,44.833333333333336
282126.42823212786,2.7000000000000002,643.0731050344109,46.93333333333333
272360.94434464187,5.4000000000000004,612.42475707749725,47.600000000000001
233152.9139661114,4.3666666666666663,594.4714610765451,47.233333333333334
294963.53599063138,3.5666666666666669,567.52427827478175,46.766666666666666
246376.90270098636,5.7000000000000002,618.19251955703089,47.5
247704.38307157517,6.9333333333333336,545.18215044501289,44.866666666666667
275848.12692232127,5.9000000000000004,607.26709272269261,48.06666666666667
220646.6479076804,8.1333333333333329,562.42314784711857,46.833333333333336
257604.87707372074,5.7999999999999998,468.4565899644611,42.533333333333331
253585.76610692136,3.7666666666666666,614.4101379554827,46.166666666666664
221837.44348815604,5.4333333333333336,528.50336965854842,41.033333333333331
236705.89431630599,3.1666666666666665,503.01634437568435,38.966666666666669
191328.40730945894,6.5333333333333332,500.38819064214948,39.399999999999999
209181.0546771232,5.9333333333333336,463.01413666560342,40.0
255788.96375605484,3.6666666666666665,533.58383239794443,43.0
259931.13913470105,4.166666666666667,568.96210919548525,44.033333333333331
232804.58207648405,6.166666666666667,614.389643825946,45.100000000000001
283248.2922371577,6.7666666666666666,573.50306004618278,46.733333333333334
243508.44050413228,5.4333333333333336,594.26275592517527,47.299999999999997
216986.47109358496,5.0,498.3486490352085,43.966666666666669
288625.80603844748,5.5666666666666664,560.28799413573847,47.0
283496.12437271804,4.0999999999999996,640.67678592553716,48.06666666666667
284891.15861542511,5.2333333333333334,636.28349433503615,48.799999999999997
244131.05823682548,5.2000000000000002,554.84560539027791,47.633333333333333
276137.11041931174,6.7999999999999998,591.1304463250633,48.233333333333334
227333.1476840385,5.166666666666667,546.35421898870072,45.633333333333333
265235.75319894758,4.4666666666666668,545.95516518704733,43.100000000000001
237335.1344107333,3.6333333333333333,565.78949693657557,42.43333333333333
234901.83203731911,3.4666666666666668,556.27363238901637,41.299999999999997
242414.79232214691,5.5,519.05439153896748,42.766666666666666
286068.62666060281,4.8666666666666663,599.43697206372497,48.43333333333333
262225.5622517381,6.1333333333333337,680.51668626432354,51.700000000000003
253005.59878748015,10.866666666666667,566.39416824093882,51.600000000000001
273723.00898544525,5.666666666666667,585.51851691254035,49.600000000000001
282104.08011098922,8.4333333333333336,612.52271859985535,53.06666666666667
275921.4746367872,6.2000000000000002,593.13641563552414,51.233333333333334
306970.83595349488,7.0999999999999996,720.61816547669923,55.533333333333331
276118.67248564534,6.2000000000000002,634.45801554182935,53.200000000000003
280699.75158067961,6.4000000000000004,612.46694443091485,51.200000000000003
281235.99108521984,5.5999999999999996,639.20707059310234,51.466666666666669
277716.30636884813,5.9666666666666668,613.50225956705276,51.200000000000003
227500.33562452174,9.3333333333333339,529.77342234707851,49.93333333333333
260872.97103036084,8.9333333333333336,542.46759519801208,50.5
270822.55210701301,8.0333333333333332,620.2630637642776,51.133333333333333
271630.20424668462,4.333333333333333,614.17698900553285,47.0
216308.98896117698,4.1333333333333337,516.12655440566732,39.766666666666666
228911.29546129104,6.333333333333333,506.45559903867655,39.633333333333333
210804.4530286958,3.9666666666666668,481.98877021740333,40.833333333333336
254089.15584885949,5.2000000000000002,559.53482828210178,45.133333333333333
236790.25358141205,3.6666666666666665,522.37012749246037,43.033333333333331
250178.25387939965,5.5333333333333332,511.40278485860716,44.56666666666667
286082.53368302906,5.0999999999999996,640.84028391421236,47.866666666666667
271663.36752291973,4.166666666666667,643.24241923428883,48.100000000000001
243335.89409504511,4.6333333333333337,570.1673785612403,44.366666666666667
231523.37482134122,7.1333333333333337,517.27143518484263,44.600000000000001
258636.81850553749,7.9000000000000004,529.51686832814516,46.43333333333333
238907.38504062829,8.0999999999999996,540.59758055132352,47.700000000000003
288389.17523680808,7.2666666666666666,597.9659777293117,50.366666666666667
236123.56577433308,8.0999999999999996,584.82331714471354,47.666666666666664
264782.2572292015,5.9000000000000004,578.41026108956441,44.600000000000001
206592.26302187087,5.0999999999999996,503.23010665690555,40.266666666666666
174667.16584090094,9.8666666666666671,391.4216143641691,40.06666666666667
249615.07855162406,7.0333333333333332,470.53805563014674,44.966666666666669
315521.40054502129,4.5,719.75156743961895,52.666666666666664
276422.64632464707,4.7000000000000002,635.93662720483564,49.866666666666667
236114.95906934209,5.9333333333333336,522.62983483770915,45.799999999999997
246781.03503841639,8.6666666666666661,550.2497178959145,46.966666666666669
276876.83785399387,6.7666666666666666,608.32322789183559,49.399999999999999
296405.4910941518,6.3666666666666663,663.18168128984075,51.899999999999999
267994.11781833426,7.7666666666666666,630.43987934863299,51.866666666666667
317276.61352498422,7.2333333333333334,657.46884334383753,54.200000000000003
252066.24322870828,5.5333333333333332,598.74432277103256,50.200000000000003
292461.98114757956,5.0,588.96480485327345,48.233333333333334
286036.3179287024,3.5,684.27376586008575,50.200000000000003
243918.88191468568,3.4666666666666668,553.68946766803333,43.333333333333336
201192.02705364444,7.5999999999999996,515.98619312138953,42.899999999999999
252819.08907372502,6.4000000000000004,492.54535970794558,44.299999999999997
230342.66876276614,4.6333333333333337,598.64335893333271,45.633333333333333
311684.84569514537,6.9666666666666668,626.78823894309198,51.0
296390.04371596256,4.666666666666667,665.69024920028403,51.700000000000003
294798.25849987299,7.166666666666667,619.24339324621599,54.0
284502.9490572394,8.0666666666666664,681.27208815211009,56.366666666666667
250947.32284228725,6.333333333333333,557.9487902329256,49.700000000000003
258687.0006091223,8.6333333333333329,593.3412070412794,48.56666666666667
236603.41233205691,8.5,557.70110433826346,47.233333333333334
293179.8004330296,4.2000000000000002,583.30205428713555,48.366666666666667
302227.60442023101,4.7333333333333334,649.54452999868352,53.366666666666667
388636.6183283896,5.2000000000000002,767.9628281204931,62.166666666666664
308089.7807141557,7.7999999999999998,779.28890065748726,64.333333333333329
361156.30227290723,9.5666666666666664,707.46668689101875,65.299999999999997
343156.85207484232,8.3333333333333339,890.00842956193685,67.400000000000006
273821.58489849116,9.0,583.93047351797088,57.966666666666669
299768.70632269047,8.5,642.74434552107891,56.93333333333333
320122.40856641677,6.9000000000000004,714.77655603127994,56.666666666666664
262032.80771227871,6.0999999999999996,588.13923350116625,49.633333333333333
288941.94650459045,7.1333333333333337,579.06982600498327,50.966666666666669
303552.32250917872,5.2000000000000002,674.91298042824667,52.333333333333336
261728.26064184902,3.7666666666666666,602.13257236999459,47.333333333333336
247815.25167707659,4.7000000000000002,544.49274343955369,43.666666666666664
286173.69391582848,4.3666666666666663,581.33204163263838,45.166666666666664
261218.04637676466,4.7333333333333334,655.76440622485995,47.966666666666669
264975.88690792449,4.7999999999999998,530.93801956756226,46.533333333333331
293380.15809049207,3.9666666666666668,629.23305506007853,51.200000000000003
221969.71307464704,7.2333333333333334,613.53801931188775,48.06666666666667
253385.02229604078,6.666666666666667,493.35267493199376,43.93333333333333
265427.8343402046,3.7000000000000002,590.83564961221396,44.100000000000001
220408.95336615382,3.0333333333333332,550.18447059162577,40.333333333333336
224876.5115217753,3.2333333333333334,508.67883011392513,38.200000000000003
247660.81002757969,2.3666666666666667,510.26456659487206,39.533333333333331
268693.68351266236,3.1000000000000001,597.11958204408177,43.899999999999999
242648.89445490279,2.2999999999999998,598.71482324109752,42.966666666666669
258200.55867901628,3.8333333333333335,504.89516826669814,43.200000000000003
236705.95107267654,4.5999999999999996,559.33948329380826,45.133333333333333
309865.14986300311,4.9666666666666668,599.13754373174356,48.799999999999997
215361.36464143739,4.3666666666666663,615.01878121069581,45.0
252866.85914644235,6.666666666666667,534.56513802375639,46.366666666666667
243532.03804809423,5.2000000000000002,595.17217531191011,44.533333333333331
269252.43605517893,6.6333333333333337,574.12984456437164,48.266666666666666
200701.51799939622,8.9666666666666668,522.6746980831947,45.133333333333333
294065.57542653906,6.7666666666666666,567.05709539372549,50.56666666666667
281812.11243615963,3.2999999999999998,682.61748896317727,48.966666666666669
261174.03892568592,5.8666666666666663,584.53411098139668,47.5
229966.04006530269,6.5333333333333332,543.97546575112494,44.5
232312.48689955942,5.5999999999999996,501.39551267189358,42.133333333333333
214404.30105494484,4.5333333333333332,481.77573330281388,39.5
223753.94423792185,4.4000000000000004,500.70719218805021,39.333333333333336
256851.16459634199,3.1333333333333333,549.09127391826428,42.06666666666667
216955.05451461466,3.9666666666666668,528.312683030485,40.06666666666667
228357.68574157884,4.9666666666666668,496.23425967388692,39.633333333333333
221553.01886647422,4.5999999999999996,487.20396254391221,40.233333333333334
229885.71035436171,3.8999999999999999,523.81183692077855,39.666666666666664
211914.35502701046,3.2000000000000002,486.25697869742595,37.133333333333333
218132.48976040029,4.1333333333333337,467.42190280848865,37.666666666666664
287277.2843887512,3.4666666666666668,600.85628482954621,44.100000000000001
213958.12493113423,4.833333333333333,576.56579088903709,44.133333333333333
268805.24237655097,5.0,526.66632471266485,44.600000000000001
294178.28326449241,2.5666666666666669,666.22283828828574,47.93333333333333
227965.33332632849,3.3999999999999999,602.23071916239132,42.56666666666667
255373.77456599579,4.1333333333333337,532.85145771230373,41.366666666666667
220085.50266072474,5.0,546.27067165624328,43.06666666666667
237899.76577207693,4.7000000000000002,505.49976686190894,44.0
286691.30421184114,6.8666666666666663,610.26398841249227,48.43333333333333
240388.22314621627,4.9000000000000004,620.64822168877981,45.56666666666667
272565.18772170006,4.4666666666666668,629.11759409105468,44.233333333333334
215733.14725626979,4.3666666666666663,522.06436066541903,41.100000000000001
205364.28668942765,4.1333333333333337,470.76449291593872,38.399999999999999
195919.19402739109,3.6666666666666665,414.35579825568146,35.366666666666667
208685.23355662246,3.5333333333333332,420.05908675907085,34.299999999999997
179339.9430030995,5.8666666666666663,440.59664759848516,35.533333333333331
219604.13505078841,2.8666666666666667,466.71471005896257,35.299999999999997
210146.33891725825,1.1666666666666667,473.64103195251613,35.133333333333333
230954.67073624776,4.2999999999999998,519.05261052280969,41.133333333333333
280802.52309813182,4.9000000000000004,565.71388707765311,45.466666666666669
269715.11343064264,6.3666666666666663,610.39189955039546,52.133333333333333
228442.55469521217,11.966666666666667,514.66144835049477,51.06666666666667
270638.46147329453,8.0666666666666664,594.81348549257905,51.233333333333334
